x-axis,1
second,Volt
-250.0000E-09,-110.8040176332E-03
-249.7500E-09,-110.8040176332E-03
-249.5000E-09,-110.8040176332E-03
-249.2500E-09,-30.4020084441E-03
-249.0000E-09,-30.4020084441E-03
-248.7500E-09,-30.4020084441E-03
-248.5000E-09,-30.4020084441E-03
-248.2500E-09,-30.4020084441E-03
-248.0000E-09,-30.4020084441E-03
-247.7500E-09,-30.4020084440E-03
-247.5000E-09,+50.0000007451E-03
-247.2500E-09,+50.0000007451E-03
-247.0000E-09,+50.0000007451E-03
-246.7500E-09,+50.0000007451E-03
-246.5000E-09,+50.0000007451E-03
-246.2500E-09,+50.0000007451E-03
-246.0000E-09,+50.0000007451E-03
-245.7500E-09,+50.0000007451E-03
-245.5000E-09,+50.0000007451E-03
-245.2500E-09,+50.0000007452E-03
-245.0000E-09,+130.4020099342E-03
-244.7500E-09,+130.4020099342E-03
-244.5000E-09,+130.4020099342E-03
-244.2500E-09,+130.4020099342E-03
-244.0000E-09,+130.4020099342E-03
-243.7500E-09,+130.4020099343E-03
-243.5000E-09,+210.8040191232E-03
-243.2500E-09,+130.4020099342E-03
-243.0000E-09,+130.4020099342E-03
-242.7500E-09,+130.4020099342E-03
-242.5000E-09,+130.4020099342E-03
-242.2500E-09,+130.4020099342E-03
-242.0000E-09,+130.4020099342E-03
-241.7500E-09,+130.4020099342E-03
-241.5000E-09,+130.4020099342E-03
-241.2500E-09,+130.4020099342E-03
-241.0000E-09,+130.4020099344E-03
-240.7500E-09,+210.8040191231E-03
-240.5000E-09,+130.4020099344E-03
-240.2500E-09,+210.8040191231E-03
-240.0000E-09,+130.4020099342E-03
-239.7500E-09,+130.4020099344E-03
-239.5000E-09,+210.8040191233E-03
-239.2500E-09,+210.8040191233E-03
-239.0000E-09,+210.8040191233E-03
-238.7500E-09,+210.8040191233E-03
-238.5000E-09,+210.8040191233E-03
-238.2500E-09,+210.8040191231E-03
-238.0000E-09,+130.4020099342E-03
-237.7500E-09,+130.4020099342E-03
-237.5000E-09,+130.4020099342E-03
-237.2500E-09,+130.4020099342E-03
-237.0000E-09,+130.4020099342E-03
-236.7500E-09,+130.4020099342E-03
-236.5000E-09,+130.4020099344E-03
-236.2500E-09,+210.8040191231E-03
-236.0000E-09,+130.4020099342E-03
-235.7500E-09,+130.4020099342E-03
-235.5000E-09,+130.4020099342E-03
-235.2500E-09,+130.4020099342E-03
-235.0000E-09,+130.4020099342E-03
-234.7500E-09,+130.4020099342E-03
-234.5000E-09,+130.4020099342E-03
-234.2500E-09,+130.4020099342E-03
-234.0000E-09,+130.4020099342E-03
-233.7500E-09,+130.4020099342E-03
-233.5000E-09,+130.4020099342E-03
-233.2500E-09,+130.4020099342E-03
-233.0000E-09,+130.4020099342E-03
-232.7500E-09,+130.4020099342E-03
-232.5000E-09,+130.4020099342E-03
-232.2500E-09,+130.4020099342E-03
-232.0000E-09,+130.4020099342E-03
-231.7500E-09,+130.4020099342E-03
-231.5000E-09,+130.4020099340E-03
-231.2500E-09,+50.0000007451E-03
-231.0000E-09,+50.0000007451E-03
-230.7500E-09,+50.0000007451E-03
-230.5000E-09,+50.0000007451E-03
-230.2500E-09,+50.0000007451E-03
-230.0000E-09,+50.0000007451E-03
-229.7500E-09,+50.0000007449E-03
-229.5000E-09,-30.4020084441E-03
-229.2500E-09,-30.4020084441E-03
-229.0000E-09,-30.4020084441E-03
-228.7500E-09,-30.4020084441E-03
-228.5000E-09,-30.4020084441E-03
-228.2500E-09,-30.4020084442E-03
-228.0000E-09,-110.8040176332E-03
-227.7500E-09,-110.8040176332E-03
-227.5000E-09,-110.8040176332E-03
-227.2500E-09,-110.8040176332E-03
-227.0000E-09,-110.8040176332E-03
-226.7500E-09,-110.8040176332E-03
-226.5000E-09,-110.8040176334E-03
-226.2500E-09,-191.2060268223E-03
-226.0000E-09,-191.2060268223E-03
-225.7500E-09,-191.2060268223E-03
-225.5000E-09,-191.2060268223E-03
-225.2500E-09,-191.2060268223E-03
-225.0000E-09,-191.2060268223E-03
-224.7500E-09,-191.2060268223E-03
-224.5000E-09,-191.2060268223E-03
-224.2500E-09,-191.2060268225E-03
-224.0000E-09,-271.6080360115E-03
-223.7500E-09,-271.6080360115E-03
-223.5000E-09,-271.6080360115E-03
-223.2500E-09,-271.6080360115E-03
-223.0000E-09,-271.6080360116E-03
-222.7500E-09,-352.0100452006E-03
-222.5000E-09,-352.0100452006E-03
-222.2500E-09,-352.0100452007E-03
-222.0000E-09,-432.4120543897E-03
-221.7500E-09,-432.4120543898E-03
-221.5000E-09,-512.8140635788E-03
-221.2500E-09,-512.8140635787E-03
-221.0000E-09,-432.4120543897E-03
-220.7500E-09,-432.4120543897E-03
-220.5000E-09,-432.4120543897E-03
-220.2500E-09,-432.4120543898E-03
-220.0000E-09,-512.8140635788E-03
-219.7500E-09,-512.8140635788E-03
-219.5000E-09,-512.8140635789E-03
-219.2500E-09,-593.2160727680E-03
-219.0000E-09,-593.2160727680E-03
-218.7500E-09,-593.2160727680E-03
-218.5000E-09,-593.2160727680E-03
-218.2500E-09,-673.6180819571E-03
-218.0000E-09,-673.6180819571E-03
-217.7500E-09,-673.6180819572E-03
-217.5000E-09,-754.0200911462E-03
-217.2500E-09,-754.0200911462E-03
-217.0000E-09,-754.0200911462E-03
-216.7500E-09,-754.0200911462E-03
-216.5000E-09,-754.0200911463E-03
-216.2500E-09,-834.4221003354E-03
-216.0000E-09,-834.4221003354E-03
-215.7500E-09,-834.4221003354E-03
-215.5000E-09,-834.4221003354E-03
-215.2500E-09,-914.8241095245E-03
-215.0000E-09,-914.8241095245E-03
-214.7500E-09,-995.2261187136E-03
-214.5000E-09,-995.2261187136E-03
-214.2500E-09,-995.2261187136E-03
-214.0000E-09,-995.2261187136E-03
-213.7500E-09,-1.0756281279028E+00
-213.5000E-09,-1.0756281279028E+00
-213.2500E-09,-1.0756281279028E+00
-213.0000E-09,-1.0756281279028E+00
-212.7500E-09,-1.0756281279028E+00
-212.5000E-09,-1.0756281279028E+00
-212.2500E-09,-1.1560301370919E+00
-212.0000E-09,-1.1560301370919E+00
-211.7500E-09,-1.2364321462810E+00
-211.5000E-09,-1.2364321462810E+00
-211.2500E-09,-1.3168341554701E+00
-211.0000E-09,-1.3168341554701E+00
-210.7500E-09,-1.3168341554701E+00
-210.5000E-09,-1.3168341554701E+00
-210.2500E-09,-1.3168341554701E+00
-210.0000E-09,-1.3168341554701E+00
-209.7500E-09,-1.3972361646593E+00
-209.5000E-09,-1.3972361646593E+00
-209.2500E-09,-1.3972361646593E+00
-209.0000E-09,-1.4776381738484E+00
-208.7500E-09,-1.4776381738484E+00
-208.5000E-09,-1.4776381738484E+00
-208.2500E-09,-1.5580401830375E+00
-208.0000E-09,-1.5580401830375E+00
-207.7500E-09,-1.5580401830375E+00
-207.5000E-09,-1.5580401830375E+00
-207.2500E-09,-1.6384421922266E+00
-207.0000E-09,-1.6384421922267E+00
-206.7500E-09,-1.6384421922267E+00
-206.5000E-09,-1.7188442014157E+00
-206.2500E-09,-1.7188442014158E+00
-206.0000E-09,-1.7188442014158E+00
-205.7500E-09,-1.7188442014158E+00
-205.5000E-09,-1.7992462106049E+00
-205.2500E-09,-1.7992462106049E+00
-205.0000E-09,-1.7992462106049E+00
-204.7500E-09,-1.8796482197940E+00
-204.5000E-09,-1.8796482197940E+00
-204.2500E-09,-1.9600502289831E+00
-204.0000E-09,-1.9600502289832E+00
-203.7500E-09,-1.9600502289832E+00
-203.5000E-09,-1.9600502289832E+00
-203.2500E-09,-2.0404522381722E+00
-203.0000E-09,-2.0404522381723E+00
-202.7500E-09,-2.0404522381723E+00
-202.5000E-09,-2.0404522381723E+00
-202.2500E-09,-2.1208542473613E+00
-202.0000E-09,-2.1208542473614E+00
-201.7500E-09,-2.1208542473614E+00
-201.5000E-09,-2.1208542473614E+00
-201.2500E-09,-2.1208542473614E+00
-201.0000E-09,-2.2012562565505E+00
-200.7500E-09,-2.2012562565506E+00
-200.5000E-09,-2.2012562565506E+00
-200.2500E-09,-2.2816582657396E+00
-200.0000E-09,-2.2816582657397E+00
-199.7500E-09,-2.2816582657397E+00
-199.5000E-09,-2.2816582657397E+00
-199.2500E-09,-2.3620602749287E+00
-199.0000E-09,-2.3620602749288E+00
-198.7500E-09,-2.3620602749288E+00
-198.5000E-09,-2.4424622841178E+00
-198.2500E-09,-2.4424622841179E+00
-198.0000E-09,-2.5228642933069E+00
-197.7500E-09,-2.5228642933071E+00
-197.5000E-09,-2.5228642933071E+00
-197.2500E-09,-2.6032663024961E+00
-197.0000E-09,-2.6032663024962E+00
-196.7500E-09,-2.6032663024962E+00
-196.5000E-09,-2.6032663024962E+00
-196.2500E-09,-2.6032663024962E+00
-196.0000E-09,-2.6836683116852E+00
-195.7500E-09,-2.6836683116853E+00
-195.5000E-09,-2.6836683116853E+00
-195.2500E-09,-2.7640703208743E+00
-195.0000E-09,-2.7640703208745E+00
-194.7500E-09,-2.8444723300634E+00
-194.5000E-09,-2.8444723300636E+00
-194.2500E-09,-2.8444723300636E+00
-194.0000E-09,-2.8444723300636E+00
-193.7500E-09,-2.8444723300636E+00
-193.5000E-09,-2.8444723300636E+00
-193.2500E-09,-2.9248743392525E+00
-193.0000E-09,-2.9248743392527E+00
-192.7500E-09,-2.9248743392527E+00
-192.5000E-09,-3.0052763484417E+00
-192.2500E-09,-3.0052763484418E+00
-192.0000E-09,-3.0052763484418E+00
-191.7500E-09,-3.0052763484418E+00
-191.5000E-09,-3.0052763484418E+00
-191.2500E-09,-3.0052763484418E+00
-191.0000E-09,-3.0052763484418E+00
-190.7500E-09,-3.0856783576308E+00
-190.5000E-09,-3.0856783576310E+00
-190.2500E-09,-3.0856783576310E+00
-190.0000E-09,-3.1660803668199E+00
-189.7500E-09,-3.1660803668201E+00
-189.5000E-09,-3.1660803668201E+00
-189.2500E-09,-3.1660803668201E+00
-189.0000E-09,-3.1660803668201E+00
-188.7500E-09,-3.1660803668201E+00
-188.5000E-09,-3.1660803668201E+00
-188.2500E-09,-3.2464823760090E+00
-188.0000E-09,-3.2464823760092E+00
-187.7500E-09,-3.2464823760092E+00
-187.5000E-09,-3.3268843851981E+00
-187.2500E-09,-3.3268843851984E+00
-187.0000E-09,-3.4072863943873E+00
-186.7500E-09,-3.4072863943875E+00
-186.5000E-09,-3.4072863943875E+00
-186.2500E-09,-3.4072863943875E+00
-186.0000E-09,-3.4072863943875E+00
-185.7500E-09,-3.4072863943875E+00
-185.5000E-09,-3.4072863943875E+00
-185.2500E-09,-3.4072863943875E+00
-185.0000E-09,-3.4072863943875E+00
-184.7500E-09,-3.4072863943875E+00
-184.5000E-09,-3.4072863943875E+00
-184.2500E-09,-3.4876884035764E+00
-184.0000E-09,-3.4876884035766E+00
-183.7500E-09,-3.4876884035766E+00
-183.5000E-09,-3.4876884035766E+00
-183.2500E-09,-3.5680904127655E+00
-183.0000E-09,-3.5680904127657E+00
-182.7500E-09,-3.6484924219546E+00
-182.5000E-09,-3.6484924219549E+00
-182.2500E-09,-3.6484924219549E+00
-182.0000E-09,-3.6484924219549E+00
-181.7500E-09,-3.5680904127660E+00
-181.5000E-09,-3.5680904127657E+00
-181.2500E-09,-3.6484924219546E+00
-181.0000E-09,-3.6484924219549E+00
-180.7500E-09,-3.6484924219549E+00
-180.5000E-09,-3.6484924219549E+00
-180.2500E-09,-3.6484924219549E+00
-180.0000E-09,-3.6484924219549E+00
-179.7500E-09,-3.7288944311437E+00
-179.5000E-09,-3.7288944311440E+00
-179.2500E-09,-3.7288944311440E+00
-179.0000E-09,-3.7288944311440E+00
-178.7500E-09,-3.7288944311440E+00
-178.5000E-09,-3.7288944311440E+00
-178.2500E-09,-3.7288944311440E+00
-178.0000E-09,-3.7288944311440E+00
-177.7500E-09,-3.7288944311440E+00
-177.5000E-09,-3.7288944311440E+00
-177.2500E-09,-3.7288944311440E+00
-177.0000E-09,-3.7288944311440E+00
-176.7500E-09,-3.7288944311440E+00
-176.5000E-09,-3.8092964403328E+00
-176.2500E-09,-3.8092964403331E+00
-176.0000E-09,-3.8092964403331E+00
-175.7500E-09,-3.8092964403331E+00
-175.5000E-09,-3.8092964403331E+00
-175.2500E-09,-3.8092964403331E+00
-175.0000E-09,-3.8092964403331E+00
-174.7500E-09,-3.8092964403331E+00
-174.5000E-09,-3.8092964403331E+00
-174.2500E-09,-3.8896984495219E+00
-174.0000E-09,-3.8896984495223E+00
-173.7500E-09,-3.8896984495223E+00
-173.5000E-09,-3.8896984495223E+00
-173.2500E-09,-3.8896984495223E+00
-173.0000E-09,-3.8896984495223E+00
-172.7500E-09,-3.8896984495223E+00
-172.5000E-09,-3.8092964403335E+00
-172.2500E-09,-3.8092964403331E+00
-172.0000E-09,-3.7288944311444E+00
-171.7500E-09,-3.8092964403327E+00
-171.5000E-09,-3.8092964403331E+00
-171.2500E-09,-3.8092964403331E+00
-171.0000E-09,-3.8896984495219E+00
-170.7500E-09,-3.8896984495223E+00
-170.5000E-09,-3.8896984495223E+00
-170.2500E-09,-3.8896984495223E+00
-170.0000E-09,-3.8092964403335E+00
-169.7500E-09,-3.8092964403331E+00
-169.5000E-09,-3.8092964403331E+00
-169.2500E-09,-3.8092964403331E+00
-169.0000E-09,-3.8092964403331E+00
-168.7500E-09,-3.8092964403331E+00
-168.5000E-09,-3.8092964403331E+00
-168.2500E-09,-3.8092964403331E+00
-168.0000E-09,-3.8092964403331E+00
-167.7500E-09,-3.8092964403331E+00
-167.5000E-09,-3.8092964403331E+00
-167.2500E-09,-3.8092964403331E+00
-167.0000E-09,-3.8092964403331E+00
-166.7500E-09,-3.8092964403331E+00
-166.5000E-09,-3.8092964403331E+00
-166.2500E-09,-3.8092964403331E+00
-166.0000E-09,-3.8092964403331E+00
-165.7500E-09,-3.8092964403331E+00
-165.5000E-09,-3.8092964403331E+00
-165.2500E-09,-3.7288944311445E+00
-165.0000E-09,-3.7288944311440E+00
-164.7500E-09,-3.7288944311440E+00
-164.5000E-09,-3.7288944311440E+00
-164.2500E-09,-3.7288944311440E+00
-164.0000E-09,-3.7288944311440E+00
-163.7500E-09,-3.6484924219553E+00
-163.5000E-09,-3.6484924219549E+00
-163.2500E-09,-3.6484924219549E+00
-163.0000E-09,-3.6484924219549E+00
-162.7500E-09,-3.6484924219549E+00
-162.5000E-09,-3.6484924219549E+00
-162.2500E-09,-3.7288944311435E+00
-162.0000E-09,-3.6484924219554E+00
-161.7500E-09,-3.6484924219549E+00
-161.5000E-09,-3.6484924219549E+00
-161.2500E-09,-3.6484924219549E+00
-161.0000E-09,-3.6484924219549E+00
-160.7500E-09,-3.5680904127662E+00
-160.5000E-09,-3.5680904127657E+00
-160.2500E-09,-3.5680904127657E+00
-160.0000E-09,-3.5680904127657E+00
-159.7500E-09,-3.5680904127657E+00
-159.5000E-09,-3.4876884035771E+00
-159.2500E-09,-3.4876884035766E+00
-159.0000E-09,-3.4876884035766E+00
-158.7500E-09,-3.4876884035766E+00
-158.5000E-09,-3.4876884035766E+00
-158.2500E-09,-3.4072863943880E+00
-158.0000E-09,-3.4072863943875E+00
-157.7500E-09,-3.4072863943875E+00
-157.5000E-09,-3.4072863943875E+00
-157.2500E-09,-3.4876884035761E+00
-157.0000E-09,-3.4072863943880E+00
-156.7500E-09,-3.4072863943875E+00
-156.5000E-09,-3.4072863943875E+00
-156.2500E-09,-3.3268843851989E+00
-156.0000E-09,-3.3268843851984E+00
-155.7500E-09,-3.3268843851984E+00
-155.5000E-09,-3.3268843851984E+00
-155.2500E-09,-3.3268843851984E+00
-155.0000E-09,-3.3268843851984E+00
-154.7500E-09,-3.3268843851984E+00
-154.5000E-09,-3.3268843851984E+00
-154.2500E-09,-3.2464823760098E+00
-154.0000E-09,-3.2464823760092E+00
-153.7500E-09,-3.2464823760092E+00
-153.5000E-09,-3.2464823760092E+00
-153.2500E-09,-3.2464823760092E+00
-153.0000E-09,-3.1660803668207E+00
-152.7500E-09,-3.1660803668201E+00
-152.5000E-09,-3.0856783576315E+00
-152.2500E-09,-3.0856783576310E+00
-152.0000E-09,-3.0856783576310E+00
-151.7500E-09,-3.0856783576310E+00
-151.5000E-09,-3.0052763484424E+00
-151.2500E-09,-3.0052763484418E+00
-151.0000E-09,-3.0052763484418E+00
-150.7500E-09,-3.0052763484418E+00
-150.5000E-09,-3.0052763484418E+00
-150.2500E-09,-3.0052763484418E+00
-150.0000E-09,-3.0052763484418E+00
-149.7500E-09,-2.9248743392533E+00
-149.5000E-09,-2.9248743392527E+00
-149.2500E-09,-2.9248743392527E+00
-149.0000E-09,-2.9248743392527E+00
-148.7500E-09,-2.8444723300642E+00
-148.5000E-09,-2.8444723300636E+00
-148.2500E-09,-2.7640703208751E+00
-148.0000E-09,-2.7640703208745E+00
-147.7500E-09,-2.6836683116860E+00
-147.5000E-09,-2.6836683116853E+00
-147.2500E-09,-2.7640703208738E+00
-147.0000E-09,-2.7640703208745E+00
-146.7500E-09,-2.7640703208745E+00
-146.5000E-09,-2.6836683116860E+00
-146.2500E-09,-2.6836683116853E+00
-146.0000E-09,-2.6032663024968E+00
-145.7500E-09,-2.6032663024962E+00
-145.5000E-09,-2.5228642933077E+00
-145.2500E-09,-2.5228642933071E+00
-145.0000E-09,-2.5228642933071E+00
-144.7500E-09,-2.4424622841186E+00
-144.5000E-09,-2.4424622841179E+00
-144.2500E-09,-2.4424622841179E+00
-144.0000E-09,-2.4424622841179E+00
-143.7500E-09,-2.4424622841179E+00
-143.5000E-09,-2.4424622841179E+00
-143.2500E-09,-2.3620602749295E+00
-143.0000E-09,-2.3620602749288E+00
-142.7500E-09,-2.3620602749288E+00
-142.5000E-09,-2.3620602749288E+00
-142.2500E-09,-2.3620602749288E+00
-142.0000E-09,-2.3620602749288E+00
-141.7500E-09,-2.2816582657404E+00
-141.5000E-09,-2.2816582657397E+00
-141.2500E-09,-2.2816582657397E+00
-141.0000E-09,-2.2012562565512E+00
-140.7500E-09,-2.2012562565506E+00
-140.5000E-09,-2.1208542473621E+00
-140.2500E-09,-2.1208542473614E+00
-140.0000E-09,-2.1208542473614E+00
-139.7500E-09,-2.1208542473614E+00
-139.5000E-09,-2.1208542473614E+00
-139.2500E-09,-2.0404522381730E+00
-139.0000E-09,-2.0404522381723E+00
-138.7500E-09,-2.0404522381723E+00
-138.5000E-09,-1.9600502289839E+00
-138.2500E-09,-1.9600502289832E+00
-138.0000E-09,-1.9600502289832E+00
-137.7500E-09,-1.8796482197948E+00
-137.5000E-09,-1.7992462106056E+00
-137.2500E-09,-1.7992462106049E+00
-137.0000E-09,-1.7992462106049E+00
-136.7500E-09,-1.7188442014165E+00
-136.5000E-09,-1.7188442014158E+00
-136.2500E-09,-1.7188442014158E+00
-136.0000E-09,-1.7188442014158E+00
-135.7500E-09,-1.7188442014158E+00
-135.5000E-09,-1.6384421922274E+00
-135.2500E-09,-1.6384421922267E+00
-135.0000E-09,-1.5580401830383E+00
-134.7500E-09,-1.5580401830375E+00
-134.5000E-09,-1.5580401830375E+00
-134.2500E-09,-1.5580401830375E+00
-134.0000E-09,-1.5580401830375E+00
-133.7500E-09,-1.4776381738492E+00
-133.5000E-09,-1.4776381738484E+00
-133.2500E-09,-1.4776381738484E+00
-133.0000E-09,-1.4776381738484E+00
-132.7500E-09,-1.3972361646600E+00
-132.5000E-09,-1.3972361646593E+00
-132.2500E-09,-1.3972361646593E+00
-132.0000E-09,-1.3168341554709E+00
-131.7500E-09,-1.3168341554701E+00
-131.5000E-09,-1.3168341554701E+00
-131.2500E-09,-1.3168341554701E+00
-131.0000E-09,-1.2364321462818E+00
-130.7500E-09,-1.2364321462810E+00
-130.5000E-09,-1.2364321462810E+00
-130.2500E-09,-1.1560301370927E+00
-130.0000E-09,-1.1560301370919E+00
-129.7500E-09,-1.1560301370919E+00
-129.5000E-09,-1.0756281279036E+00
-129.2500E-09,-1.0756281279028E+00
-129.0000E-09,-1.0756281279028E+00
-128.7500E-09,-1.0756281279028E+00
-128.5000E-09,-1.0756281279028E+00
-128.2500E-09,-995.2261187144E-03
-128.0000E-09,-995.2261187136E-03
-127.7500E-09,-914.8241095253E-03
-127.5000E-09,-914.8241095245E-03
-127.2500E-09,-914.8241095245E-03
-127.0000E-09,-914.8241095245E-03
-126.7500E-09,-914.8241095245E-03
-126.5000E-09,-834.4221003362E-03
-126.2500E-09,-834.4221003354E-03
-126.0000E-09,-834.4221003354E-03
-125.7500E-09,-754.0200911471E-03
-125.5000E-09,-754.0200911462E-03
-125.2500E-09,-754.0200911462E-03
-125.0000E-09,-673.6180819579E-03
-124.7500E-09,-673.6180819571E-03
-124.5000E-09,-673.6180819571E-03
-124.2500E-09,-673.6180819571E-03
-124.0000E-09,-673.6180819571E-03
-123.7500E-09,-593.2160727688E-03
-123.5000E-09,-593.2160727680E-03
-123.2500E-09,-593.2160727680E-03
-123.0000E-09,-593.2160727680E-03
-122.7500E-09,-593.2160727680E-03
-122.5000E-09,-512.8140635797E-03
-122.2500E-09,-512.8140635788E-03
-122.0000E-09,-512.8140635788E-03
-121.7500E-09,-432.4120543906E-03
-121.5000E-09,-432.4120543897E-03
-121.2500E-09,-432.4120543897E-03
-121.0000E-09,-432.4120543897E-03
-120.7500E-09,-432.4120543897E-03
-120.5000E-09,-432.4120543897E-03
-120.2500E-09,-432.4120543897E-03
-120.0000E-09,-432.4120543897E-03
-119.7500E-09,-432.4120543897E-03
-119.5000E-09,-432.4120543897E-03
-119.2500E-09,-432.4120543897E-03
-119.0000E-09,-352.0100452015E-03
-118.7500E-09,-352.0100452006E-03
-118.5000E-09,-352.0100452006E-03
-118.2500E-09,-271.6080360124E-03
-118.0000E-09,-271.6080360115E-03
-117.7500E-09,-271.6080360115E-03
-117.5000E-09,-271.6080360115E-03
-117.2500E-09,-271.6080360115E-03
-117.0000E-09,-191.2060268232E-03
-116.7500E-09,-191.2060268223E-03
-116.5000E-09,-191.2060268223E-03
-116.2500E-09,-191.2060268223E-03
-116.0000E-09,-191.2060268223E-03
-115.7500E-09,-110.8040176341E-03
-115.5000E-09,-110.8040176332E-03
-115.2500E-09,-110.8040176332E-03
-115.0000E-09,-110.8040176332E-03
-114.7500E-09,-110.8040176332E-03
-114.5000E-09,-110.8040176332E-03
-114.2500E-09,-110.8040176332E-03
-114.0000E-09,-110.8040176332E-03
-113.7500E-09,-30.4020084449E-03
-113.5000E-09,-30.4020084441E-03
-113.2500E-09,-30.4020084441E-03
-113.0000E-09,-30.4020084441E-03
-112.7500E-09,-30.4020084441E-03
-112.5000E-09,-30.4020084441E-03
-112.2500E-09,-30.4020084441E-03
-112.0000E-09,-30.4020084441E-03
-111.7500E-09,+50.0000007442E-03
-111.5000E-09,+50.0000007451E-03
-111.2500E-09,+50.0000007451E-03
-111.0000E-09,+50.0000007451E-03
-110.7500E-09,+50.0000007451E-03
-110.5000E-09,+50.0000007451E-03
-110.2500E-09,+50.0000007451E-03
-110.0000E-09,+50.0000007451E-03
-109.7500E-09,+50.0000007451E-03
-109.5000E-09,+50.0000007451E-03
-109.2500E-09,+50.0000007451E-03
-109.0000E-09,+50.0000007451E-03
-108.7500E-09,+50.0000007451E-03
-108.5000E-09,+130.4020099334E-03
-108.2500E-09,+130.4020099342E-03
-108.0000E-09,+130.4020099342E-03
-107.7500E-09,+130.4020099342E-03
-107.5000E-09,+130.4020099342E-03
-107.2500E-09,+130.4020099342E-03
-107.0000E-09,+130.4020099342E-03
-106.7500E-09,+130.4020099342E-03
-106.5000E-09,+130.4020099342E-03
-106.2500E-09,+130.4020099342E-03
-106.0000E-09,+130.4020099342E-03
-105.7500E-09,+130.4020099342E-03
-105.5000E-09,+130.4020099342E-03
-105.2500E-09,+130.4020099342E-03
-105.0000E-09,+130.4020099342E-03
-104.7500E-09,+210.8040191225E-03
-104.5000E-09,+210.8040191233E-03
-104.2500E-09,+210.8040191233E-03
-104.0000E-09,+210.8040191233E-03
-103.7500E-09,+210.8040191233E-03
-103.5000E-09,+210.8040191233E-03
-103.2500E-09,+130.4020099350E-03
-103.0000E-09,+130.4020099342E-03
-102.7500E-09,+130.4020099342E-03
-102.5000E-09,+130.4020099342E-03
-102.2500E-09,+130.4020099342E-03
-102.0000E-09,+130.4020099342E-03
-101.7500E-09,+130.4020099342E-03
-101.5000E-09,+130.4020099342E-03
-101.2500E-09,+130.4020099342E-03
-101.0000E-09,+130.4020099342E-03
-100.7500E-09,+130.4020099342E-03
-100.5000E-09,+50.0000007458E-03
-100.2500E-09,+50.0000007451E-03
-100.0000E-09,+50.0000007451E-03
-99.7500E-09,+50.0000007451E-03
-99.5000E-09,+50.0000007451E-03
-99.2500E-09,+130.4020099334E-03
-99.0000E-09,+130.4020099342E-03
-98.7500E-09,+130.4020099342E-03
-98.5000E-09,+50.0000007458E-03
-98.2500E-09,+50.0000007451E-03
-98.0000E-09,+50.0000007451E-03
-97.7500E-09,+50.0000007451E-03
-97.5000E-09,+50.0000007451E-03
-97.2500E-09,+50.0000007451E-03
-97.0000E-09,+50.0000007451E-03
-96.7500E-09,+50.0000007451E-03
-96.5000E-09,+50.0000007451E-03
-96.2500E-09,+50.0000007451E-03
-96.0000E-09,+50.0000007451E-03
-95.7500E-09,+50.0000007451E-03
-95.5000E-09,+50.0000007451E-03
-95.2500E-09,+50.0000007451E-03
-95.0000E-09,+50.0000007451E-03
-94.7500E-09,-30.4020084433E-03
-94.5000E-09,-30.4020084441E-03
-94.2500E-09,-30.4020084441E-03
-94.0000E-09,-30.4020084441E-03
-93.7500E-09,-30.4020084441E-03
-93.5000E-09,-30.4020084441E-03
-93.2500E-09,-30.4020084441E-03
-93.0000E-09,-30.4020084441E-03
-92.7500E-09,-30.4020084441E-03
-92.5000E-09,-110.8040176325E-03
-92.2500E-09,-110.8040176332E-03
-92.0000E-09,-191.2060268216E-03
-91.7500E-09,-191.2060268223E-03
-91.5000E-09,-191.2060268223E-03
-91.2500E-09,-110.8040176339E-03
-91.0000E-09,-191.2060268216E-03
-90.7500E-09,-191.2060268223E-03
-90.5000E-09,-191.2060268223E-03
-90.2500E-09,-191.2060268223E-03
-90.0000E-09,-271.6080360108E-03
-89.7500E-09,-271.6080360115E-03
-89.5000E-09,-271.6080360115E-03
-89.2500E-09,-271.6080360115E-03
-89.0000E-09,-271.6080360115E-03
-88.7500E-09,-271.6080360115E-03
-88.5000E-09,-271.6080360115E-03
-88.2500E-09,-352.0100451999E-03
-88.0000E-09,-352.0100452006E-03
-87.7500E-09,-352.0100452006E-03
-87.5000E-09,-352.0100452006E-03
-87.2500E-09,-352.0100452006E-03
-87.0000E-09,-352.0100452006E-03
-86.7500E-09,-352.0100452006E-03
-86.5000E-09,-352.0100452006E-03
-86.2500E-09,-432.4120543890E-03
-86.0000E-09,-432.4120543897E-03
-85.7500E-09,-432.4120543897E-03
-85.5000E-09,-432.4120543897E-03
-85.2500E-09,-512.8140635782E-03
-85.0000E-09,-512.8140635788E-03
-84.7500E-09,-512.8140635788E-03
-84.5000E-09,-512.8140635788E-03
-84.2500E-09,-593.2160727673E-03
-84.0000E-09,-593.2160727680E-03
-83.7500E-09,-593.2160727680E-03
-83.5000E-09,-593.2160727680E-03
-83.2500E-09,-673.6180819565E-03
-83.0000E-09,-673.6180819571E-03
-82.7500E-09,-673.6180819571E-03
-82.5000E-09,-673.6180819571E-03
-82.2500E-09,-673.6180819571E-03
-82.0000E-09,-754.0200911456E-03
-81.7500E-09,-754.0200911462E-03
-81.5000E-09,-754.0200911462E-03
-81.2500E-09,-834.4221003347E-03
-81.0000E-09,-834.4221003354E-03
-80.7500E-09,-834.4221003354E-03
-80.5000E-09,-914.8241095239E-03
-80.2500E-09,-914.8241095245E-03
-80.0000E-09,-914.8241095245E-03
-79.7500E-09,-914.8241095245E-03
-79.5000E-09,-914.8241095245E-03
-79.2500E-09,-995.2261187130E-03
-79.0000E-09,-995.2261187136E-03
-78.7500E-09,-995.2261187136E-03
-78.5000E-09,-995.2261187136E-03
-78.2500E-09,-1.0756281279021E+00
-78.0000E-09,-1.0756281279028E+00
-77.7500E-09,-1.0756281279028E+00
-77.5000E-09,-1.1560301370913E+00
-77.2500E-09,-1.1560301370919E+00
-77.0000E-09,-1.1560301370919E+00
-76.7500E-09,-1.1560301370919E+00
-76.5000E-09,-1.1560301370919E+00
-76.2500E-09,-1.1560301370919E+00
-76.0000E-09,-1.2364321462804E+00
-75.7500E-09,-1.2364321462810E+00
-75.5000E-09,-1.2364321462810E+00
-75.2500E-09,-1.2364321462810E+00
-75.0000E-09,-1.3168341554696E+00
-74.7500E-09,-1.3168341554701E+00
-74.5000E-09,-1.3972361646587E+00
-74.2500E-09,-1.3972361646593E+00
-74.0000E-09,-1.4776381738478E+00
-73.7500E-09,-1.4776381738484E+00
-73.5000E-09,-1.4776381738484E+00
-73.2500E-09,-1.5580401830370E+00
-73.0000E-09,-1.5580401830375E+00
-72.7500E-09,-1.5580401830375E+00
-72.5000E-09,-1.5580401830375E+00
-72.2500E-09,-1.5580401830375E+00
-72.0000E-09,-1.5580401830375E+00
-71.7500E-09,-1.6384421922261E+00
-71.5000E-09,-1.6384421922267E+00
-71.2500E-09,-1.6384421922267E+00
-71.0000E-09,-1.7188442014152E+00
-70.7500E-09,-1.7188442014158E+00
-70.5000E-09,-1.7188442014158E+00
-70.2500E-09,-1.7188442014158E+00
-70.0000E-09,-1.7992462106044E+00
-69.7500E-09,-1.7992462106049E+00
-69.5000E-09,-1.7992462106049E+00
-69.2500E-09,-1.8796482197935E+00
-69.0000E-09,-1.8796482197940E+00
-68.7500E-09,-1.8796482197940E+00
-68.5000E-09,-1.8796482197940E+00
-68.2500E-09,-1.9600502289826E+00
-68.0000E-09,-1.9600502289832E+00
-67.7500E-09,-1.9600502289832E+00
-67.5000E-09,-2.0404522381718E+00
-67.2500E-09,-2.0404522381723E+00
-67.0000E-09,-2.0404522381723E+00
-66.7500E-09,-2.0404522381723E+00
-66.5000E-09,-2.1208542473609E+00
-66.2500E-09,-2.1208542473614E+00
-66.0000E-09,-2.1208542473614E+00
-65.7500E-09,-2.1208542473614E+00
-65.5000E-09,-2.1208542473614E+00
-65.2500E-09,-2.2012562565500E+00
-65.0000E-09,-2.2012562565506E+00
-64.7500E-09,-2.2816582657392E+00
-64.5000E-09,-2.2816582657397E+00
-64.2500E-09,-2.3620602749283E+00
-64.0000E-09,-2.3620602749288E+00
-63.7500E-09,-2.3620602749288E+00
-63.5000E-09,-2.4424622841174E+00
-63.2500E-09,-2.4424622841179E+00
-63.0000E-09,-2.4424622841179E+00
-62.7500E-09,-2.4424622841179E+00
-62.5000E-09,-2.5228642933066E+00
-62.2500E-09,-2.5228642933071E+00
-62.0000E-09,-2.5228642933071E+00
-61.7500E-09,-2.6032663024957E+00
-61.5000E-09,-2.5228642933076E+00
-61.2500E-09,-2.6032663024957E+00
-61.0000E-09,-2.6032663024962E+00
-60.7500E-09,-2.6032663024962E+00
-60.5000E-09,-2.6032663024962E+00
-60.2500E-09,-2.6836683116849E+00
-60.0000E-09,-2.6836683116853E+00
-59.7500E-09,-2.6836683116853E+00
-59.5000E-09,-2.7640703208740E+00
-59.2500E-09,-2.7640703208745E+00
-59.0000E-09,-2.7640703208745E+00
-58.7500E-09,-2.8444723300631E+00
-58.5000E-09,-2.8444723300636E+00
-58.2500E-09,-2.8444723300636E+00
-58.0000E-09,-2.8444723300636E+00
-57.7500E-09,-2.8444723300636E+00
-57.5000E-09,-2.9248743392522E+00
-57.2500E-09,-2.9248743392527E+00
-57.0000E-09,-2.9248743392527E+00
-56.7500E-09,-2.9248743392527E+00
-56.5000E-09,-2.9248743392527E+00
-56.2500E-09,-2.9248743392527E+00
-56.0000E-09,-3.0052763484414E+00
-55.7500E-09,-3.0052763484418E+00
-55.5000E-09,-3.0856783576305E+00
-55.2500E-09,-3.0856783576310E+00
-55.0000E-09,-3.0856783576310E+00
-54.7500E-09,-3.0856783576310E+00
-54.5000E-09,-3.0856783576310E+00
-54.2500E-09,-3.0856783576310E+00
-54.0000E-09,-3.1660803668196E+00
-53.7500E-09,-3.2464823760087E+00
-53.5000E-09,-3.2464823760092E+00
-53.2500E-09,-3.2464823760092E+00
-53.0000E-09,-3.2464823760092E+00
-52.7500E-09,-3.2464823760092E+00
-52.5000E-09,-3.3268843851979E+00
-52.2500E-09,-3.3268843851984E+00
-52.0000E-09,-3.3268843851984E+00
-51.7500E-09,-3.3268843851984E+00
-51.5000E-09,-3.4072863943870E+00
-51.2500E-09,-3.4072863943875E+00
-51.0000E-09,-3.4072863943875E+00
-50.7500E-09,-3.4072863943875E+00
-50.5000E-09,-3.4072863943875E+00
-50.2500E-09,-3.4072863943875E+00
-50.0000E-09,-3.4072863943875E+00
-49.7500E-09,-3.4072863943875E+00
-49.5000E-09,-3.4072863943875E+00
-49.2500E-09,-3.4876884035761E+00
-49.0000E-09,-3.4876884035766E+00
-48.7500E-09,-3.4876884035766E+00
-48.5000E-09,-3.4876884035766E+00
-48.2500E-09,-3.4876884035766E+00
-48.0000E-09,-3.4876884035766E+00
-47.7500E-09,-3.5680904127653E+00
-47.5000E-09,-3.5680904127657E+00
-47.2500E-09,-3.5680904127657E+00
-47.0000E-09,-3.5680904127657E+00
-46.7500E-09,-3.5680904127657E+00
-46.5000E-09,-3.5680904127657E+00
-46.2500E-09,-3.5680904127657E+00
-46.0000E-09,-3.6484924219544E+00
-45.7500E-09,-3.6484924219549E+00
-45.5000E-09,-3.6484924219549E+00
-45.2500E-09,-3.7288944311435E+00
-45.0000E-09,-3.7288944311440E+00
-44.7500E-09,-3.7288944311440E+00
-44.5000E-09,-3.7288944311440E+00
-44.2500E-09,-3.7288944311440E+00
-44.0000E-09,-3.6484924219554E+00
-43.7500E-09,-3.6484924219549E+00
-43.5000E-09,-3.7288944311435E+00
-43.2500E-09,-3.7288944311440E+00
-43.0000E-09,-3.7288944311440E+00
-42.7500E-09,-3.7288944311440E+00
-42.5000E-09,-3.7288944311440E+00
-42.2500E-09,-3.7288944311440E+00
-42.0000E-09,-3.7288944311440E+00
-41.7500E-09,-3.7288944311440E+00
-41.5000E-09,-3.7288944311440E+00
-41.2500E-09,-3.7288944311440E+00
-41.0000E-09,-3.8092964403326E+00
-40.7500E-09,-3.7288944311445E+00
-40.5000E-09,-3.7288944311440E+00
-40.2500E-09,-3.7288944311440E+00
-40.0000E-09,-3.7288944311440E+00
-39.7500E-09,-3.8092964403326E+00
-39.5000E-09,-3.8092964403331E+00
-39.2500E-09,-3.8092964403331E+00
-39.0000E-09,-3.8092964403331E+00
-38.7500E-09,-3.8092964403331E+00
-38.5000E-09,-3.8092964403331E+00
-38.2500E-09,-3.8092964403331E+00
-38.0000E-09,-3.8896984495218E+00
-37.7500E-09,-3.8896984495223E+00
-37.5000E-09,-3.8896984495223E+00
-37.2500E-09,-3.8896984495223E+00
-37.0000E-09,-3.8092964403336E+00
-36.7500E-09,-3.8092964403331E+00
-36.5000E-09,-3.8092964403331E+00
-36.2500E-09,-3.8092964403331E+00
-36.0000E-09,-3.8092964403331E+00
-35.7500E-09,-3.8092964403331E+00
-35.5000E-09,-3.8092964403331E+00
-35.2500E-09,-3.8092964403331E+00
-35.0000E-09,-3.8092964403331E+00
-34.7500E-09,-3.8092964403331E+00
-34.5000E-09,-3.8092964403331E+00
-34.2500E-09,-3.8092964403331E+00
-34.0000E-09,-3.8092964403331E+00
-33.7500E-09,-3.8092964403331E+00
-33.5000E-09,-3.8092964403331E+00
-33.2500E-09,-3.8092964403331E+00
-33.0000E-09,-3.8092964403331E+00
-32.7500E-09,-3.8092964403331E+00
-32.5000E-09,-3.8092964403331E+00
-32.2500E-09,-3.8092964403331E+00
-32.0000E-09,-3.8092964403331E+00
-31.7500E-09,-3.8092964403331E+00
-31.5000E-09,-3.8092964403331E+00
-31.2500E-09,-3.8092964403331E+00
-31.0000E-09,-3.8092964403331E+00
-30.7500E-09,-3.8092964403331E+00
-30.5000E-09,-3.7288944311445E+00
-30.2500E-09,-3.7288944311440E+00
-30.0000E-09,-3.7288944311440E+00
-29.7500E-09,-3.7288944311440E+00
-29.5000E-09,-3.7288944311440E+00
-29.2500E-09,-3.7288944311440E+00
-29.0000E-09,-3.7288944311440E+00
-28.7500E-09,-3.7288944311440E+00
-28.5000E-09,-3.7288944311440E+00
-28.2500E-09,-3.7288944311440E+00
-28.0000E-09,-3.7288944311440E+00
-27.7500E-09,-3.7288944311440E+00
-27.5000E-09,-3.7288944311440E+00
-27.2500E-09,-3.7288944311440E+00
-27.0000E-09,-3.6484924219554E+00
-26.7500E-09,-3.6484924219549E+00
-26.5000E-09,-3.6484924219549E+00
-26.2500E-09,-3.6484924219549E+00
-26.0000E-09,-3.6484924219549E+00
-25.7500E-09,-3.6484924219549E+00
-25.5000E-09,-3.5680904127663E+00
-25.2500E-09,-3.5680904127657E+00
-25.0000E-09,-3.5680904127657E+00
-24.7500E-09,-3.5680904127657E+00
-24.5000E-09,-3.5680904127657E+00
-24.2500E-09,-3.5680904127657E+00
-24.0000E-09,-3.4876884035771E+00
-23.7500E-09,-3.4876884035766E+00
-23.5000E-09,-3.4876884035766E+00
-23.2500E-09,-3.4876884035766E+00
-23.0000E-09,-3.4876884035766E+00
-22.7500E-09,-3.4876884035766E+00
-22.5000E-09,-3.4876884035766E+00
-22.2500E-09,-3.4072863943880E+00
-22.0000E-09,-3.4072863943875E+00
-21.7500E-09,-3.4072863943875E+00
-21.5000E-09,-3.4072863943875E+00
-21.2500E-09,-3.4072863943875E+00
-21.0000E-09,-3.4072863943875E+00
-20.7500E-09,-3.4072863943875E+00
-20.5000E-09,-3.4072863943875E+00
-20.2500E-09,-3.4072863943875E+00
-20.0000E-09,-3.3268843851989E+00
-19.7500E-09,-3.3268843851984E+00
-19.5000E-09,-3.3268843851984E+00
-19.2500E-09,-3.2464823760098E+00
-19.0000E-09,-3.2464823760092E+00
-18.7500E-09,-3.2464823760092E+00
-18.5000E-09,-3.2464823760092E+00
-18.2500E-09,-3.2464823760092E+00
-18.0000E-09,-3.1660803668206E+00
-17.7500E-09,-3.1660803668201E+00
-17.5000E-09,-3.1660803668201E+00
-17.2500E-09,-3.1660803668201E+00
-17.0000E-09,-3.0856783576315E+00
-16.7500E-09,-3.0856783576310E+00
-16.5000E-09,-3.0856783576310E+00
-16.2500E-09,-3.0052763484424E+00
-16.0000E-09,-3.0052763484418E+00
-15.7500E-09,-3.0052763484418E+00
-15.5000E-09,-3.0052763484418E+00
-15.2500E-09,-3.0052763484418E+00
-15.0000E-09,-3.0052763484418E+00
-14.7500E-09,-2.9248743392533E+00
-14.5000E-09,-2.9248743392527E+00
-14.2500E-09,-2.9248743392527E+00
-14.0000E-09,-2.8444723300641E+00
-13.7500E-09,-2.8444723300636E+00
-13.5000E-09,-2.8444723300636E+00
-13.2500E-09,-2.8444723300636E+00
-13.0000E-09,-2.8444723300636E+00
-12.7500E-09,-2.8444723300636E+00
-12.5000E-09,-2.8444723300636E+00
-12.2500E-09,-2.8444723300636E+00
-12.0000E-09,-2.8444723300636E+00
-11.7500E-09,-2.7640703208750E+00
-11.5000E-09,-2.6836683116859E+00
-11.2500E-09,-2.6836683116853E+00
-11.0000E-09,-2.6836683116853E+00
-10.7500E-09,-2.6836683116853E+00
-10.5000E-09,-2.6836683116853E+00
-10.2500E-09,-2.6032663024967E+00
-10.0000E-09,-2.6032663024962E+00
-9.7500E-09,-2.5228642933076E+00
-9.5000E-09,-2.5228642933071E+00
-9.2500E-09,-2.5228642933071E+00
-9.0000E-09,-2.5228642933071E+00
-8.7500E-09,-2.4424622841185E+00
-8.5000E-09,-2.4424622841179E+00
-8.2500E-09,-2.4424622841179E+00
-8.0000E-09,-2.3620602749293E+00
-7.7500E-09,-2.3620602749288E+00
-7.5000E-09,-2.3620602749288E+00
-7.2500E-09,-2.3620602749288E+00
-7.0000E-09,-2.3620602749288E+00
-6.7500E-09,-2.2816582657402E+00
-6.5000E-09,-2.2012562565511E+00
-6.2500E-09,-2.2012562565506E+00
-6.0000E-09,-2.1208542473620E+00
-5.7500E-09,-2.1208542473614E+00
-5.5000E-09,-2.1208542473614E+00
-5.2500E-09,-2.1208542473614E+00
-5.0000E-09,-2.1208542473614E+00
-4.7500E-09,-2.0404522381728E+00
-4.5000E-09,-2.0404522381723E+00
-4.2500E-09,-2.0404522381723E+00
-4.0000E-09,-1.9600502289837E+00
-3.7500E-09,-1.9600502289832E+00
-3.5000E-09,-1.9600502289832E+00
-3.2500E-09,-1.8796482197946E+00
-3.0000E-09,-1.8796482197940E+00
-2.7500E-09,-1.8796482197940E+00
-2.5000E-09,-1.8796482197940E+00
-2.2500E-09,-1.8796482197940E+00
-2.0000E-09,-1.7992462106054E+00
-1.7500E-09,-1.7992462106049E+00
-1.5000E-09,-1.7992462106049E+00
-1.2500E-09,-1.7188442014163E+00
-1.0000E-09,-1.7188442014158E+00
-750.0E-12,-1.6384421922272E+00
-500.0E-12,-1.6384421922267E+00
-250.0E-12,-1.6384421922267E+00
-0.0E+00,-1.6384421922267E+00
+250.0E-12,-1.6384421922267E+00
+500.0E-12,-1.5580401830381E+00
+750.0E-12,-1.5580401830375E+00
+1.0000E-09,-1.5580401830375E+00
+1.2500E-09,-1.4776381738489E+00
+1.5000E-09,-1.4776381738484E+00
+1.7500E-09,-1.4776381738484E+00
+2.0000E-09,-1.4776381738484E+00
+2.2500E-09,-1.3972361646598E+00
+2.5000E-09,-1.3972361646593E+00
+2.7500E-09,-1.3168341554707E+00
+3.0000E-09,-1.3168341554701E+00
+3.2500E-09,-1.3168341554701E+00
+3.5000E-09,-1.3168341554701E+00
+3.7500E-09,-1.3168341554701E+00
+4.0000E-09,-1.3168341554701E+00
+4.2500E-09,-1.3168341554701E+00
+4.5000E-09,-1.2364321462815E+00
+4.7500E-09,-1.2364321462810E+00
+5.0000E-09,-1.1560301370924E+00
+5.2500E-09,-1.1560301370919E+00
+5.5000E-09,-1.0756281279033E+00
+5.7500E-09,-1.0756281279028E+00
+6.0000E-09,-1.0756281279028E+00
+6.2500E-09,-1.0756281279028E+00
+6.5000E-09,-1.0756281279028E+00
+6.7500E-09,-1.0756281279028E+00
+7.0000E-09,-995.2261187141E-03
+7.2500E-09,-995.2261187136E-03
+7.5000E-09,-995.2261187136E-03
+7.7500E-09,-914.8241095250E-03
+8.0000E-09,-914.8241095245E-03
+8.2500E-09,-914.8241095245E-03
+8.5000E-09,-914.8241095245E-03
+8.7500E-09,-834.4221003359E-03
+9.0000E-09,-834.4221003354E-03
+9.2500E-09,-834.4221003354E-03
+9.5000E-09,-834.4221003354E-03
+9.7500E-09,-754.0200911468E-03
+10.0000E-09,-754.0200911462E-03
+10.2500E-09,-754.0200911462E-03
+10.5000E-09,-673.6180819576E-03
+10.7500E-09,-673.6180819571E-03
+11.0000E-09,-673.6180819571E-03
+11.2500E-09,-673.6180819571E-03
+11.5000E-09,-593.2160727685E-03
+11.7500E-09,-593.2160727680E-03
+12.0000E-09,-593.2160727680E-03
+12.2500E-09,-593.2160727680E-03
+12.5000E-09,-593.2160727680E-03
+12.7500E-09,-593.2160727680E-03
+13.0000E-09,-593.2160727680E-03
+13.2500E-09,-593.2160727680E-03
+13.5000E-09,-512.8140635794E-03
+13.7500E-09,-512.8140635788E-03
+14.0000E-09,-512.8140635788E-03
+14.2500E-09,-432.4120543902E-03
+14.5000E-09,-432.4120543897E-03
+14.7500E-09,-432.4120543897E-03
+15.0000E-09,-432.4120543897E-03
+15.2500E-09,-352.0100452011E-03
+15.5000E-09,-352.0100452006E-03
+15.7500E-09,-352.0100452006E-03
+16.0000E-09,-352.0100452006E-03
+16.2500E-09,-271.6080360120E-03
+16.5000E-09,-191.2060268229E-03
+16.7500E-09,-191.2060268223E-03
+17.0000E-09,-191.2060268223E-03
+17.2500E-09,-271.6080360109E-03
+17.5000E-09,-271.6080360115E-03
+17.7500E-09,-271.6080360115E-03
+18.0000E-09,-271.6080360115E-03
+18.2500E-09,-191.2060268229E-03
+18.5000E-09,-191.2060268223E-03
+18.7500E-09,-191.2060268223E-03
+19.0000E-09,-191.2060268223E-03
+19.2500E-09,-110.8040176337E-03
+19.5000E-09,-110.8040176332E-03
+19.7500E-09,-110.8040176332E-03
+20.0000E-09,-110.8040176332E-03
+20.2500E-09,-110.8040176332E-03
+20.5000E-09,-110.8040176332E-03
+20.7500E-09,-110.8040176332E-03
+21.0000E-09,-30.4020084446E-03
+21.2500E-09,-30.4020084441E-03
+21.5000E-09,-30.4020084441E-03
+21.7500E-09,-30.4020084441E-03
+22.0000E-09,-30.4020084441E-03
+22.2500E-09,-30.4020084441E-03
+22.5000E-09,-30.4020084441E-03
+22.7500E-09,-30.4020084441E-03
+23.0000E-09,-30.4020084441E-03
+23.2500E-09,-30.4020084441E-03
+23.5000E-09,-30.4020084441E-03
+23.7500E-09,+50.0000007445E-03
+24.0000E-09,+50.0000007451E-03
+24.2500E-09,+50.0000007451E-03
+24.5000E-09,+50.0000007451E-03
+24.7500E-09,+50.0000007451E-03
+25.0000E-09,+50.0000007451E-03
+25.2500E-09,+50.0000007451E-03
+25.5000E-09,+50.0000007451E-03
+25.7500E-09,+50.0000007451E-03
+26.0000E-09,+50.0000007451E-03
+26.2500E-09,+50.0000007451E-03
+26.5000E-09,+130.4020099336E-03
+26.7500E-09,+130.4020099342E-03
+27.0000E-09,+130.4020099342E-03
+27.2500E-09,+130.4020099342E-03
+27.5000E-09,+130.4020099342E-03
+27.7500E-09,+130.4020099342E-03
+28.0000E-09,+130.4020099342E-03
+28.2500E-09,+130.4020099342E-03
+28.5000E-09,+130.4020099342E-03
+28.7500E-09,+130.4020099342E-03
+29.0000E-09,+130.4020099342E-03
+29.2500E-09,+130.4020099342E-03
+29.5000E-09,+130.4020099342E-03
+29.7500E-09,+130.4020099342E-03
+30.0000E-09,+210.8040191228E-03
+30.2500E-09,+210.8040191233E-03
+30.5000E-09,+210.8040191233E-03
+30.7500E-09,+210.8040191233E-03
+31.0000E-09,+210.8040191233E-03
+31.2500E-09,+210.8040191233E-03
+31.5000E-09,+210.8040191233E-03
+31.7500E-09,+210.8040191233E-03
+32.0000E-09,+210.8040191233E-03
+32.2500E-09,+210.8040191233E-03
+32.5000E-09,+130.4020099347E-03
+32.7500E-09,+130.4020099342E-03
+33.0000E-09,+130.4020099342E-03
+33.2500E-09,+130.4020099342E-03
+33.5000E-09,+130.4020099342E-03
+33.7500E-09,+210.8040191228E-03
+34.0000E-09,+210.8040191233E-03
+34.2500E-09,+130.4020099347E-03
+34.5000E-09,+130.4020099342E-03
+34.7500E-09,+130.4020099342E-03
+35.0000E-09,+130.4020099342E-03
+35.2500E-09,+130.4020099342E-03
+35.5000E-09,+130.4020099342E-03
+35.7500E-09,+130.4020099342E-03
+36.0000E-09,+130.4020099342E-03
+36.2500E-09,+130.4020099342E-03
+36.5000E-09,+130.4020099342E-03
+36.7500E-09,+130.4020099342E-03
+37.0000E-09,+130.4020099342E-03
+37.2500E-09,+130.4020099342E-03
+37.5000E-09,+50.0000007456E-03
+37.7500E-09,+50.0000007451E-03
+38.0000E-09,+50.0000007451E-03
+38.2500E-09,+50.0000007451E-03
+38.5000E-09,+50.0000007451E-03
+38.7500E-09,+50.0000007451E-03
+39.0000E-09,+50.0000007451E-03
+39.2500E-09,+50.0000007451E-03
+39.5000E-09,+50.0000007451E-03
+39.7500E-09,+50.0000007451E-03
+40.0000E-09,+50.0000007451E-03
+40.2500E-09,+50.0000007451E-03
+40.5000E-09,+50.0000007451E-03
+40.7500E-09,+50.0000007451E-03
+41.0000E-09,+50.0000007451E-03
+41.2500E-09,+50.0000007451E-03
+41.5000E-09,-30.4020084435E-03
+41.7500E-09,-30.4020084441E-03
+42.0000E-09,-30.4020084441E-03
+42.2500E-09,-30.4020084441E-03
+42.5000E-09,-30.4020084441E-03
+42.7500E-09,-30.4020084441E-03
+43.0000E-09,-30.4020084441E-03
+43.2500E-09,-30.4020084441E-03
+43.5000E-09,-30.4020084441E-03
+43.7500E-09,-110.8040176326E-03
+44.0000E-09,-110.8040176332E-03
+44.2500E-09,-110.8040176332E-03
+44.5000E-09,-191.2060268218E-03
+44.7500E-09,-191.2060268223E-03
+45.0000E-09,-191.2060268223E-03
+45.2500E-09,-191.2060268223E-03
+45.5000E-09,-271.6080360109E-03
+45.7500E-09,-271.6080360115E-03
+46.0000E-09,-271.6080360115E-03
+46.2500E-09,-271.6080360115E-03
+46.5000E-09,-271.6080360115E-03
+46.7500E-09,-271.6080360115E-03
+47.0000E-09,-352.0100452000E-03
+47.2500E-09,-352.0100452006E-03
+47.5000E-09,-352.0100452006E-03
+47.7500E-09,-352.0100452006E-03
+48.0000E-09,-352.0100452006E-03
+48.2500E-09,-352.0100452006E-03
+48.5000E-09,-352.0100452006E-03
+48.7500E-09,-432.4120543891E-03
+49.0000E-09,-432.4120543897E-03
+49.2500E-09,-432.4120543897E-03
+49.5000E-09,-432.4120543897E-03
+49.7500E-09,-432.4120543897E-03
+50.0000E-09,-512.8140635783E-03
+50.2500E-09,-512.8140635788E-03
+50.5000E-09,-512.8140635788E-03
+50.7500E-09,-512.8140635788E-03
+51.0000E-09,-512.8140635788E-03
+51.2500E-09,-512.8140635788E-03
+51.5000E-09,-593.2160727674E-03
+51.7500E-09,-593.2160727680E-03
+52.0000E-09,-593.2160727680E-03
+52.2500E-09,-673.6180819565E-03
+52.5000E-09,-673.6180819571E-03
+52.7500E-09,-673.6180819571E-03
+53.0000E-09,-754.0200911456E-03
+53.2500E-09,-754.0200911462E-03
+53.5000E-09,-754.0200911462E-03
+53.7500E-09,-754.0200911462E-03
+54.0000E-09,-754.0200911462E-03
+54.2500E-09,-834.4221003348E-03
+54.5000E-09,-834.4221003354E-03
+54.7500E-09,-834.4221003354E-03
+55.0000E-09,-914.8241095239E-03
+55.2500E-09,-914.8241095245E-03
+55.5000E-09,-914.8241095245E-03
+55.7500E-09,-914.8241095245E-03
+56.0000E-09,-914.8241095245E-03
+56.2500E-09,-914.8241095245E-03
+56.5000E-09,-995.2261187130E-03
+56.7500E-09,-995.2261187136E-03
+57.0000E-09,-995.2261187136E-03
+57.2500E-09,-995.2261187136E-03
+57.5000E-09,-1.0756281279022E+00
+57.7500E-09,-1.0756281279028E+00
+58.0000E-09,-1.0756281279028E+00
+58.2500E-09,-1.1560301370913E+00
+58.5000E-09,-1.1560301370919E+00
+58.7500E-09,-1.2364321462804E+00
+59.0000E-09,-1.2364321462810E+00
+59.2500E-09,-1.2364321462810E+00
+59.5000E-09,-1.2364321462810E+00
+59.7500E-09,-1.2364321462810E+00
+60.0000E-09,-1.3168341554696E+00
+60.2500E-09,-1.3168341554701E+00
+60.5000E-09,-1.3168341554701E+00
+60.7500E-09,-1.3168341554701E+00
+61.0000E-09,-1.3972361646587E+00
+61.2500E-09,-1.3972361646593E+00
+61.5000E-09,-1.4776381738478E+00
+61.7500E-09,-1.4776381738484E+00
+62.0000E-09,-1.4776381738484E+00
+62.2500E-09,-1.4776381738484E+00
+62.5000E-09,-1.4776381738484E+00
+62.7500E-09,-1.4776381738484E+00
+63.0000E-09,-1.5580401830370E+00
+63.2500E-09,-1.5580401830375E+00
+63.5000E-09,-1.5580401830375E+00
+63.7500E-09,-1.6384421922261E+00
+64.0000E-09,-1.6384421922267E+00
+64.2500E-09,-1.6384421922267E+00
+64.5000E-09,-1.7188442014152E+00
+64.7500E-09,-1.7188442014158E+00
+65.0000E-09,-1.7992462106044E+00
+65.2500E-09,-1.7992462106049E+00
+65.5000E-09,-1.7992462106049E+00
+65.7500E-09,-1.7992462106049E+00
+66.0000E-09,-1.8796482197935E+00
+66.2500E-09,-1.8796482197940E+00
+66.5000E-09,-1.8796482197940E+00
+66.7500E-09,-1.9600502289826E+00
+67.0000E-09,-1.9600502289832E+00
+67.2500E-09,-2.0404522381718E+00
+67.5000E-09,-1.9600502289837E+00
+67.7500E-09,-2.0404522381718E+00
+68.0000E-09,-2.0404522381723E+00
+68.2500E-09,-2.0404522381723E+00
+68.5000E-09,-2.0404522381723E+00
+68.7500E-09,-2.0404522381723E+00
+69.0000E-09,-2.1208542473609E+00
+69.2500E-09,-2.1208542473614E+00
+69.5000E-09,-2.1208542473614E+00
+69.7500E-09,-2.2012562565500E+00
+70.0000E-09,-2.2012562565506E+00
+70.2500E-09,-2.2012562565506E+00
+70.5000E-09,-2.2816582657392E+00
+70.7500E-09,-2.2816582657397E+00
+71.0000E-09,-2.2816582657397E+00
+71.2500E-09,-2.2816582657397E+00
+71.5000E-09,-2.3620602749283E+00
+71.7500E-09,-2.3620602749288E+00
+72.0000E-09,-2.3620602749288E+00
+72.2500E-09,-2.3620602749288E+00
+72.5000E-09,-2.4424622841174E+00
+72.7500E-09,-2.4424622841179E+00
+73.0000E-09,-2.4424622841179E+00
+73.2500E-09,-2.5228642933066E+00
+73.5000E-09,-2.5228642933071E+00
+73.7500E-09,-2.5228642933071E+00
+74.0000E-09,-2.6032663024957E+00
+74.2500E-09,-2.6032663024962E+00
+74.5000E-09,-2.6032663024962E+00
+74.7500E-09,-2.6836683116849E+00
+75.0000E-09,-2.6836683116853E+00
+75.2500E-09,-2.6836683116853E+00
+75.5000E-09,-2.6836683116853E+00
+75.7500E-09,-2.7640703208740E+00
+76.0000E-09,-2.7640703208745E+00
+76.2500E-09,-2.7640703208745E+00
+76.5000E-09,-2.7640703208745E+00
+76.7500E-09,-2.8444723300631E+00
+77.0000E-09,-2.8444723300636E+00
+77.2500E-09,-2.8444723300636E+00
+77.5000E-09,-2.8444723300636E+00
+77.7500E-09,-2.9248743392523E+00
+78.0000E-09,-2.9248743392527E+00
+78.2500E-09,-2.9248743392527E+00
+78.5000E-09,-2.9248743392527E+00
+78.7500E-09,-3.0052763484414E+00
+79.0000E-09,-3.0052763484418E+00
+79.2500E-09,-3.0052763484418E+00
+79.5000E-09,-3.0052763484418E+00
+79.7500E-09,-3.0052763484418E+00
+80.0000E-09,-3.0052763484418E+00
+80.2500E-09,-3.0856783576305E+00
+80.5000E-09,-3.0856783576310E+00
+80.7500E-09,-3.0856783576310E+00
+81.0000E-09,-3.0856783576310E+00
+81.2500E-09,-3.1660803668197E+00
+81.5000E-09,-3.1660803668201E+00
+81.7500E-09,-3.1660803668201E+00
+82.0000E-09,-3.1660803668201E+00
+82.2500E-09,-3.2464823760088E+00
+82.5000E-09,-3.2464823760092E+00
+82.7500E-09,-3.2464823760092E+00
+83.0000E-09,-3.3268843851979E+00
+83.2500E-09,-3.3268843851984E+00
+83.5000E-09,-3.3268843851984E+00
+83.7500E-09,-3.3268843851984E+00
+84.0000E-09,-3.3268843851984E+00
+84.2500E-09,-3.4072863943871E+00
+84.5000E-09,-3.4072863943875E+00
+84.7500E-09,-3.4072863943875E+00
+85.0000E-09,-3.4072863943875E+00
+85.2500E-09,-3.4072863943875E+00
+85.5000E-09,-3.4072863943875E+00
+85.7500E-09,-3.4072863943875E+00
+86.0000E-09,-3.4876884035762E+00
+86.2500E-09,-3.4876884035766E+00
+86.5000E-09,-3.4876884035766E+00
+86.7500E-09,-3.5680904127654E+00
+87.0000E-09,-3.5680904127657E+00
+87.2500E-09,-3.5680904127657E+00
+87.5000E-09,-3.5680904127657E+00
+87.7500E-09,-3.5680904127657E+00
+88.0000E-09,-3.5680904127657E+00
+88.2500E-09,-3.5680904127657E+00
+88.5000E-09,-3.5680904127657E+00
+88.7500E-09,-3.5680904127657E+00
+89.0000E-09,-3.5680904127657E+00
+89.2500E-09,-3.5680904127657E+00
+89.5000E-09,-3.6484924219545E+00
+89.7500E-09,-3.6484924219549E+00
+90.0000E-09,-3.6484924219549E+00
+90.2500E-09,-3.7288944311436E+00
+90.5000E-09,-3.6484924219552E+00
+90.7500E-09,-3.6484924219549E+00
+91.0000E-09,-3.7288944311436E+00
+91.2500E-09,-3.7288944311440E+00
+91.5000E-09,-3.7288944311440E+00
+91.7500E-09,-3.7288944311440E+00
+92.0000E-09,-3.7288944311440E+00
+92.2500E-09,-3.6484924219552E+00
+92.5000E-09,-3.7288944311437E+00
+92.7500E-09,-3.7288944311440E+00
+93.0000E-09,-3.7288944311440E+00
+93.2500E-09,-3.7288944311440E+00
+93.5000E-09,-3.7288944311440E+00
+93.7500E-09,-3.8092964403328E+00
+94.0000E-09,-3.8092964403331E+00
+94.2500E-09,-3.8092964403331E+00
+94.5000E-09,-3.8092964403331E+00
+94.7500E-09,-3.8092964403331E+00
+95.0000E-09,-3.8092964403331E+00
+95.2500E-09,-3.8092964403331E+00
+95.5000E-09,-3.8092964403331E+00
+95.7500E-09,-3.8092964403331E+00
+96.0000E-09,-3.8092964403331E+00
+96.2500E-09,-3.8092964403331E+00
+96.5000E-09,-3.8092964403331E+00
+96.7500E-09,-3.8092964403331E+00
+97.0000E-09,-3.8092964403331E+00
+97.2500E-09,-3.8092964403331E+00
+97.5000E-09,-3.8092964403331E+00
+97.7500E-09,-3.8896984495220E+00
+98.0000E-09,-3.8896984495223E+00
+98.2500E-09,-3.8896984495223E+00
+98.5000E-09,-3.8092964403334E+00
+98.7500E-09,-3.8092964403331E+00
+99.0000E-09,-3.8092964403331E+00
+99.2500E-09,-3.8092964403331E+00
+99.5000E-09,-3.8092964403331E+00
+99.7500E-09,-3.7288944311443E+00
+100.0000E-09,-3.8092964403328E+00
+100.2500E-09,-3.8092964403331E+00
+100.5000E-09,-3.8092964403331E+00
+100.7500E-09,-3.8896984495220E+00
+101.0000E-09,-3.8896984495223E+00
+101.2500E-09,-3.8896984495223E+00
+101.5000E-09,-3.8896984495223E+00
+101.7500E-09,-3.8092964403334E+00
+102.0000E-09,-3.8092964403331E+00
+102.2500E-09,-3.8092964403331E+00
+102.5000E-09,-3.8092964403331E+00
+102.7500E-09,-3.8092964403331E+00
+103.0000E-09,-3.7288944311443E+00
+103.2500E-09,-3.7288944311440E+00
+103.5000E-09,-3.7288944311440E+00
+103.7500E-09,-3.7288944311440E+00
+104.0000E-09,-3.7288944311440E+00
+104.2500E-09,-3.7288944311440E+00
+104.5000E-09,-3.7288944311440E+00
+104.7500E-09,-3.7288944311440E+00
+105.0000E-09,-3.7288944311440E+00
+105.2500E-09,-3.7288944311440E+00
+105.5000E-09,-3.7288944311440E+00
+105.7500E-09,-3.7288944311440E+00
+106.0000E-09,-3.7288944311440E+00
+106.2500E-09,-3.7288944311440E+00
+106.5000E-09,-3.7288944311440E+00
+106.7500E-09,-3.7288944311440E+00
+107.0000E-09,-3.7288944311440E+00
+107.2500E-09,-3.7288944311440E+00
+107.5000E-09,-3.7288944311440E+00
+107.7500E-09,-3.7288944311440E+00
+108.0000E-09,-3.7288944311440E+00
+108.2500E-09,-3.6484924219551E+00
+108.5000E-09,-3.6484924219549E+00
+108.7500E-09,-3.6484924219549E+00
+109.0000E-09,-3.6484924219549E+00
+109.2500E-09,-3.6484924219549E+00
+109.5000E-09,-3.6484924219549E+00
+109.7500E-09,-3.5680904127660E+00
+110.0000E-09,-3.5680904127657E+00
+110.2500E-09,-3.5680904127657E+00
+110.5000E-09,-3.5680904127657E+00
+110.7500E-09,-3.5680904127657E+00
+111.0000E-09,-3.5680904127657E+00
+111.2500E-09,-3.5680904127657E+00
+111.5000E-09,-3.5680904127657E+00
+111.7500E-09,-3.4876884035768E+00
+112.0000E-09,-3.4876884035766E+00
+112.2500E-09,-3.4876884035766E+00
+112.5000E-09,-3.4876884035766E+00
+112.7500E-09,-3.4072863943877E+00
+113.0000E-09,-3.4072863943875E+00
+113.2500E-09,-3.4072863943875E+00
+113.5000E-09,-3.4072863943875E+00
+113.7500E-09,-3.4072863943875E+00
+114.0000E-09,-3.4072863943875E+00
+114.2500E-09,-3.4072863943875E+00
+114.5000E-09,-3.3268843851985E+00
+114.7500E-09,-3.3268843851984E+00
+115.0000E-09,-3.3268843851984E+00
+115.2500E-09,-3.3268843851984E+00
+115.5000E-09,-3.3268843851984E+00
+115.7500E-09,-3.3268843851984E+00
+116.0000E-09,-3.2464823760094E+00
+116.2500E-09,-3.2464823760092E+00
+116.5000E-09,-3.1660803668203E+00
+116.7500E-09,-3.1660803668201E+00
+117.0000E-09,-3.1660803668201E+00
+117.2500E-09,-3.1660803668201E+00
+117.5000E-09,-3.1660803668201E+00
+117.7500E-09,-3.1660803668201E+00
+118.0000E-09,-3.1660803668201E+00
+118.2500E-09,-3.1660803668201E+00
+118.5000E-09,-3.0856783576311E+00
+118.7500E-09,-3.0856783576310E+00
+119.0000E-09,-3.0856783576310E+00
+119.2500E-09,-3.0052763484420E+00
+119.5000E-09,-3.0052763484418E+00
+119.7500E-09,-3.0052763484418E+00
+120.0000E-09,-2.9248743392529E+00
+120.2500E-09,-2.9248743392527E+00
+120.5000E-09,-2.9248743392527E+00
+120.7500E-09,-2.9248743392527E+00
+121.0000E-09,-2.9248743392527E+00
+121.2500E-09,-2.8444723300638E+00
+121.5000E-09,-2.8444723300636E+00
+121.7500E-09,-2.8444723300636E+00
+122.0000E-09,-2.8444723300636E+00
+122.2500E-09,-2.7640703208746E+00
+122.5000E-09,-2.7640703208745E+00
+122.7500E-09,-2.7640703208745E+00
+123.0000E-09,-2.6836683116855E+00
+123.2500E-09,-2.6836683116853E+00
+123.5000E-09,-2.6836683116853E+00
+123.7500E-09,-2.6836683116853E+00
+124.0000E-09,-2.6836683116853E+00
+124.2500E-09,-2.6032663024964E+00
+124.5000E-09,-2.6032663024962E+00
+124.7500E-09,-2.6032663024962E+00
+125.0000E-09,-2.6032663024962E+00
+125.2500E-09,-2.6032663024962E+00
+125.5000E-09,-2.5228642933073E+00
+125.7500E-09,-2.5228642933071E+00
+126.0000E-09,-2.4424622841182E+00
+126.2500E-09,-2.4424622841179E+00
+126.5000E-09,-2.4424622841179E+00
+126.7500E-09,-2.4424622841179E+00
+127.0000E-09,-2.4424622841179E+00
+127.2500E-09,-2.3620602749291E+00
+127.5000E-09,-2.3620602749288E+00
+127.7500E-09,-2.2816582657399E+00
+128.0000E-09,-2.2816582657397E+00
+128.2500E-09,-2.2816582657397E+00
+128.5000E-09,-2.2816582657397E+00
+128.7500E-09,-2.2012562565508E+00
+129.0000E-09,-2.2012562565506E+00
+129.2500E-09,-2.1208542473617E+00
+129.5000E-09,-2.1208542473614E+00
+129.7500E-09,-2.1208542473614E+00
+130.0000E-09,-2.1208542473614E+00
+130.2500E-09,-2.1208542473614E+00
+130.5000E-09,-2.1208542473614E+00
+130.7500E-09,-2.1208542473614E+00
+131.0000E-09,-2.0404522381726E+00
+131.2500E-09,-2.0404522381723E+00
+131.5000E-09,-2.0404522381723E+00
+131.7500E-09,-1.9600502289835E+00
+132.0000E-09,-1.9600502289832E+00
+132.2500E-09,-1.9600502289832E+00
+132.5000E-09,-1.8796482197943E+00
+132.7500E-09,-1.8796482197940E+00
+133.0000E-09,-1.8796482197940E+00
+133.2500E-09,-1.8796482197940E+00
+133.5000E-09,-1.8796482197940E+00
+133.7500E-09,-1.8796482197940E+00
+134.0000E-09,-1.7992462106052E+00
+134.2500E-09,-1.7188442014161E+00
+134.5000E-09,-1.7188442014158E+00
+134.7500E-09,-1.7188442014158E+00
+135.0000E-09,-1.6384421922270E+00
+135.2500E-09,-1.6384421922267E+00
+135.5000E-09,-1.6384421922267E+00
+135.7500E-09,-1.5580401830379E+00
+136.0000E-09,-1.5580401830375E+00
+136.2500E-09,-1.5580401830375E+00
+136.5000E-09,-1.4776381738487E+00
+136.7500E-09,-1.4776381738484E+00
+137.0000E-09,-1.4776381738484E+00
+137.2500E-09,-1.4776381738484E+00
+137.5000E-09,-1.3972361646596E+00
+137.7500E-09,-1.3972361646593E+00
+138.0000E-09,-1.3972361646593E+00
+138.2500E-09,-1.3168341554705E+00
+138.5000E-09,-1.3168341554701E+00
+138.7500E-09,-1.3168341554701E+00
+139.0000E-09,-1.2364321462814E+00
+139.2500E-09,-1.2364321462810E+00
+139.5000E-09,-1.2364321462810E+00
+139.7500E-09,-1.2364321462810E+00
+140.0000E-09,-1.2364321462810E+00
+140.2500E-09,-1.1560301370922E+00
+140.5000E-09,-1.1560301370919E+00
+140.7500E-09,-1.1560301370919E+00
+141.0000E-09,-1.0756281279031E+00
+141.2500E-09,-1.0756281279028E+00
+141.5000E-09,-1.0756281279028E+00
+141.7500E-09,-995.2261187140E-03
+142.0000E-09,-995.2261187136E-03
+142.2500E-09,-995.2261187136E-03
+142.5000E-09,-995.2261187136E-03
+142.7500E-09,-914.8241095249E-03
+143.0000E-09,-914.8241095245E-03
+143.2500E-09,-914.8241095245E-03
+143.5000E-09,-914.8241095245E-03
+143.7500E-09,-914.8241095245E-03
+144.0000E-09,-834.4221003358E-03
+144.2500E-09,-834.4221003354E-03
+144.5000E-09,-834.4221003354E-03
+144.7500E-09,-834.4221003354E-03
+145.0000E-09,-834.4221003354E-03
+145.2500E-09,-754.0200911467E-03
+145.5000E-09,-754.0200911462E-03
+145.7500E-09,-673.6180819575E-03
+146.0000E-09,-673.6180819571E-03
+146.2500E-09,-673.6180819571E-03
+146.5000E-09,-673.6180819571E-03
+146.7500E-09,-673.6180819571E-03
+147.0000E-09,-673.6180819571E-03
+147.2500E-09,-593.2160727684E-03
+147.5000E-09,-593.2160727680E-03
+147.7500E-09,-593.2160727680E-03
+148.0000E-09,-593.2160727680E-03
+148.2500E-09,-512.8140635793E-03
+148.5000E-09,-512.8140635788E-03
+148.7500E-09,-512.8140635788E-03
+149.0000E-09,-432.4120543902E-03
+149.2500E-09,-432.4120543897E-03
+149.5000E-09,-432.4120543897E-03
+149.7500E-09,-432.4120543897E-03
+150.0000E-09,-432.4120543897E-03
+150.2500E-09,-432.4120543897E-03
+150.5000E-09,-352.0100452011E-03
+150.7500E-09,-352.0100452006E-03
+151.0000E-09,-271.6080360119E-03
+151.2500E-09,-271.6080360115E-03
+151.5000E-09,-271.6080360115E-03
+151.7500E-09,-271.6080360115E-03
+152.0000E-09,-271.6080360115E-03
+152.2500E-09,-271.6080360115E-03
+152.5000E-09,-271.6080360115E-03
+152.7500E-09,-271.6080360115E-03
+153.0000E-09,-271.6080360115E-03
+153.2500E-09,-271.6080360115E-03
+153.5000E-09,-271.6080360115E-03
+153.7500E-09,-191.2060268228E-03
+154.0000E-09,-191.2060268223E-03
+154.2500E-09,-191.2060268223E-03
+154.5000E-09,-191.2060268223E-03
+154.7500E-09,-191.2060268223E-03
+155.0000E-09,-110.8040176337E-03
+155.2500E-09,-110.8040176332E-03
+155.5000E-09,-110.8040176332E-03
+155.7500E-09,-110.8040176332E-03
+156.0000E-09,-110.8040176332E-03
+156.2500E-09,-110.8040176332E-03
+156.5000E-09,-30.4020084446E-03
+156.7500E-09,-30.4020084441E-03
+157.0000E-09,-30.4020084441E-03
+157.2500E-09,-30.4020084441E-03
+157.5000E-09,-30.4020084441E-03
+157.7500E-09,-30.4020084441E-03
+158.0000E-09,+50.0000007445E-03
+158.2500E-09,+50.0000007451E-03
+158.5000E-09,+50.0000007451E-03
+158.7500E-09,+50.0000007451E-03
+159.0000E-09,+50.0000007451E-03
+159.2500E-09,+50.0000007451E-03
+159.5000E-09,+50.0000007451E-03
+159.7500E-09,+130.4020099336E-03
+160.0000E-09,+130.4020099342E-03
+160.2500E-09,+130.4020099342E-03
+160.5000E-09,+130.4020099342E-03
+160.7500E-09,+50.0000007456E-03
+161.0000E-09,+50.0000007451E-03
+161.2500E-09,+50.0000007451E-03
+161.5000E-09,+50.0000007451E-03
+161.7500E-09,+130.4020099336E-03
+162.0000E-09,+130.4020099342E-03
+162.2500E-09,+130.4020099342E-03
+162.5000E-09,+130.4020099342E-03
+162.7500E-09,+130.4020099342E-03
+163.0000E-09,+130.4020099342E-03
+163.2500E-09,+130.4020099342E-03
+163.5000E-09,+130.4020099342E-03
+163.7500E-09,+130.4020099342E-03
+164.0000E-09,+130.4020099342E-03
+164.2500E-09,+130.4020099342E-03
+164.5000E-09,+130.4020099342E-03
+164.7500E-09,+130.4020099342E-03
+165.0000E-09,+210.8040191227E-03
+165.2500E-09,+130.4020099348E-03
+165.5000E-09,+130.4020099342E-03
+165.7500E-09,+210.8040191227E-03
+166.0000E-09,+210.8040191233E-03
+166.2500E-09,+130.4020099348E-03
+166.5000E-09,+130.4020099342E-03
+166.7500E-09,+130.4020099342E-03
+167.0000E-09,+130.4020099342E-03
+167.2500E-09,+210.8040191227E-03
+167.5000E-09,+210.8040191233E-03
+167.7500E-09,+210.8040191233E-03
+168.0000E-09,+210.8040191233E-03
+168.2500E-09,+210.8040191233E-03
+168.5000E-09,+130.4020099348E-03
+168.7500E-09,+130.4020099342E-03
+169.0000E-09,+210.8040191227E-03
+169.2500E-09,+210.8040191233E-03
+169.5000E-09,+210.8040191233E-03
+169.7500E-09,+210.8040191233E-03
+170.0000E-09,+130.4020099348E-03
+170.2500E-09,+130.4020099342E-03
+170.5000E-09,+130.4020099342E-03
+170.7500E-09,+130.4020099342E-03
+171.0000E-09,+130.4020099342E-03
+171.2500E-09,+130.4020099342E-03
+171.5000E-09,+130.4020099342E-03
+171.7500E-09,+130.4020099342E-03
+172.0000E-09,+130.4020099342E-03
+172.2500E-09,+130.4020099342E-03
+172.5000E-09,+130.4020099342E-03
+172.7500E-09,+130.4020099342E-03
+173.0000E-09,+130.4020099342E-03
+173.2500E-09,+130.4020099342E-03
+173.5000E-09,+50.0000007458E-03
+173.7500E-09,+50.0000007451E-03
+174.0000E-09,+50.0000007451E-03
+174.2500E-09,+50.0000007451E-03
+174.5000E-09,+50.0000007451E-03
+174.7500E-09,+50.0000007451E-03
+175.0000E-09,+50.0000007451E-03
+175.2500E-09,-30.4020084434E-03
+175.5000E-09,-30.4020084441E-03
+175.7500E-09,-30.4020084441E-03
+176.0000E-09,-30.4020084441E-03
+176.2500E-09,-30.4020084441E-03
+176.5000E-09,-30.4020084441E-03
+176.7500E-09,-30.4020084441E-03
+177.0000E-09,-30.4020084441E-03
+177.2500E-09,-30.4020084441E-03
+177.5000E-09,-30.4020084441E-03
+177.7500E-09,-30.4020084441E-03
+178.0000E-09,-110.8040176325E-03
+178.2500E-09,-110.8040176332E-03
+178.5000E-09,-110.8040176332E-03
+178.7500E-09,-110.8040176332E-03
+179.0000E-09,-110.8040176332E-03
+179.2500E-09,-110.8040176332E-03
+179.5000E-09,-110.8040176332E-03
+179.7500E-09,-110.8040176332E-03
+180.0000E-09,-110.8040176332E-03
+180.2500E-09,-191.2060268216E-03
+180.5000E-09,-191.2060268223E-03
+180.7500E-09,-191.2060268223E-03
+181.0000E-09,-271.6080360107E-03
+181.2500E-09,-271.6080360115E-03
+181.5000E-09,-271.6080360115E-03
+181.7500E-09,-271.6080360115E-03
+182.0000E-09,-191.2060268231E-03
+182.2500E-09,-271.6080360107E-03
+182.5000E-09,-271.6080360115E-03
+182.7500E-09,-271.6080360115E-03
+183.0000E-09,-352.0100451998E-03
+183.2500E-09,-352.0100452006E-03
+183.5000E-09,-352.0100452006E-03
+183.7500E-09,-352.0100452006E-03
+184.0000E-09,-352.0100452006E-03
+184.2500E-09,-432.4120543889E-03
+184.5000E-09,-432.4120543897E-03
+184.7500E-09,-432.4120543897E-03
+185.0000E-09,-432.4120543897E-03
+185.2500E-09,-432.4120543897E-03
+185.5000E-09,-512.8140635780E-03
+185.7500E-09,-512.8140635788E-03
+186.0000E-09,-512.8140635788E-03
+186.2500E-09,-512.8140635788E-03
+186.5000E-09,-512.8140635788E-03
+186.7500E-09,-593.2160727672E-03
+187.0000E-09,-593.2160727680E-03
+187.2500E-09,-593.2160727680E-03
+187.5000E-09,-673.6180819563E-03
+187.7500E-09,-673.6180819571E-03
+188.0000E-09,-673.6180819571E-03
+188.2500E-09,-673.6180819571E-03
+188.5000E-09,-754.0200911454E-03
+188.7500E-09,-754.0200911462E-03
+189.0000E-09,-754.0200911462E-03
+189.2500E-09,-754.0200911462E-03
+189.5000E-09,-834.4221003345E-03
+189.7500E-09,-834.4221003354E-03
+190.0000E-09,-834.4221003354E-03
+190.2500E-09,-834.4221003354E-03
+190.5000E-09,-914.8241095236E-03
+190.7500E-09,-914.8241095245E-03
+191.0000E-09,-995.2261187127E-03
+191.2500E-09,-995.2261187136E-03
+191.5000E-09,-995.2261187136E-03
+191.7500E-09,-995.2261187136E-03
+192.0000E-09,-995.2261187136E-03
+192.2500E-09,-995.2261187136E-03
+192.5000E-09,-995.2261187136E-03
+192.7500E-09,-1.0756281279019E+00
+193.0000E-09,-1.0756281279028E+00
+193.2500E-09,-1.0756281279028E+00
+193.5000E-09,-1.0756281279028E+00
+193.7500E-09,-1.1560301370910E+00
+194.0000E-09,-1.1560301370919E+00
+194.2500E-09,-1.1560301370919E+00
+194.5000E-09,-1.2364321462801E+00
+194.7500E-09,-1.3168341554692E+00
+195.0000E-09,-1.3168341554701E+00
+195.2500E-09,-1.3168341554701E+00
+195.5000E-09,-1.3168341554701E+00
+195.7500E-09,-1.3168341554701E+00
+196.0000E-09,-1.3972361646584E+00
+196.2500E-09,-1.3972361646593E+00
+196.5000E-09,-1.3972361646593E+00
+196.7500E-09,-1.3972361646593E+00
+197.0000E-09,-1.3972361646593E+00
+197.2500E-09,-1.4776381738475E+00
+197.5000E-09,-1.4776381738484E+00
+197.7500E-09,-1.4776381738484E+00
+198.0000E-09,-1.5580401830366E+00
+198.2500E-09,-1.5580401830375E+00
+198.5000E-09,-1.5580401830375E+00
+198.7500E-09,-1.6384421922257E+00
+199.0000E-09,-1.6384421922267E+00
+199.2500E-09,-1.6384421922267E+00
+199.5000E-09,-1.7188442014148E+00
+199.7500E-09,-1.7188442014158E+00
+200.0000E-09,-1.7188442014158E+00
+200.2500E-09,-1.7992462106040E+00
+200.5000E-09,-1.7992462106049E+00
+200.7500E-09,-1.8796482197931E+00
+201.0000E-09,-1.8796482197940E+00
+201.2500E-09,-1.8796482197940E+00
+201.5000E-09,-1.8796482197940E+00
+201.7500E-09,-1.8796482197940E+00
+202.0000E-09,-1.9600502289822E+00
+202.2500E-09,-1.9600502289832E+00
+202.5000E-09,-1.9600502289832E+00
+202.7500E-09,-2.0404522381713E+00
+203.0000E-09,-2.0404522381723E+00
+203.2500E-09,-2.0404522381723E+00
+203.5000E-09,-2.0404522381723E+00
+203.7500E-09,-2.0404522381723E+00
+204.0000E-09,-2.1208542473604E+00
+204.2500E-09,-2.1208542473614E+00
+204.5000E-09,-2.2012562565496E+00
+204.7500E-09,-2.2012562565506E+00
+205.0000E-09,-2.2012562565506E+00
+205.2500E-09,-2.2816582657387E+00
+205.5000E-09,-2.2816582657397E+00
+205.7500E-09,-2.2816582657397E+00
+206.0000E-09,-2.2816582657397E+00
+206.2500E-09,-2.3620602749278E+00
+206.5000E-09,-2.3620602749288E+00
+206.7500E-09,-2.3620602749288E+00
+207.0000E-09,-2.4424622841169E+00
+207.2500E-09,-2.4424622841179E+00
+207.5000E-09,-2.4424622841179E+00
+207.7500E-09,-2.4424622841179E+00
+208.0000E-09,-2.4424622841179E+00
+208.2500E-09,-2.4424622841179E+00
+208.5000E-09,-2.5228642933060E+00
+208.7500E-09,-2.5228642933071E+00
+209.0000E-09,-2.6032663024952E+00
+209.2500E-09,-2.6032663024962E+00
+209.5000E-09,-2.6032663024962E+00
+209.7500E-09,-2.6032663024962E+00
+210.0000E-09,-2.6032663024962E+00
+210.2500E-09,-2.6836683116843E+00
+210.5000E-09,-2.6836683116853E+00
+210.7500E-09,-2.7640703208734E+00
+211.0000E-09,-2.7640703208745E+00
+211.2500E-09,-2.7640703208745E+00
+211.5000E-09,-2.7640703208745E+00
+211.7500E-09,-2.7640703208745E+00
+212.0000E-09,-2.8444723300625E+00
+212.2500E-09,-2.8444723300636E+00
+212.5000E-09,-2.8444723300636E+00
+212.7500E-09,-2.8444723300636E+00
+213.0000E-09,-2.8444723300636E+00
+213.2500E-09,-2.8444723300636E+00
+213.5000E-09,-2.9248743392516E+00
+213.7500E-09,-2.9248743392527E+00
+214.0000E-09,-2.9248743392527E+00
+214.2500E-09,-2.9248743392527E+00
+214.5000E-09,-3.0052763484407E+00
+214.7500E-09,-3.0052763484418E+00
+215.0000E-09,-3.0052763484418E+00
+215.2500E-09,-3.0052763484418E+00
+215.5000E-09,-3.0856783576299E+00
+215.7500E-09,-3.0856783576310E+00
+216.0000E-09,-3.0856783576310E+00
+216.2500E-09,-3.1660803668190E+00
+216.5000E-09,-3.1660803668201E+00
+216.7500E-09,-3.1660803668201E+00
+217.0000E-09,-3.1660803668201E+00
+217.2500E-09,-3.2464823760081E+00
+217.5000E-09,-3.2464823760092E+00
+217.7500E-09,-3.2464823760092E+00
+218.0000E-09,-3.2464823760092E+00
+218.2500E-09,-3.2464823760092E+00
+218.5000E-09,-3.2464823760092E+00
+218.7500E-09,-3.3268843851972E+00
+219.0000E-09,-3.3268843851984E+00
+219.2500E-09,-3.3268843851984E+00
+219.5000E-09,-3.4072863943863E+00
+219.7500E-09,-3.4072863943875E+00
+220.0000E-09,-3.4072863943875E+00
+220.2500E-09,-3.4072863943875E+00
+220.5000E-09,-3.4072863943875E+00
+220.7500E-09,-3.4072863943875E+00
+221.0000E-09,-3.4072863943875E+00
+221.2500E-09,-3.4072863943875E+00
+221.5000E-09,-3.4876884035754E+00
+221.7500E-09,-3.4876884035766E+00
+222.0000E-09,-3.4876884035766E+00
+222.2500E-09,-3.4876884035766E+00
+222.5000E-09,-3.4876884035766E+00
+222.7500E-09,-3.4876884035766E+00
+223.0000E-09,-3.4876884035766E+00
+223.2500E-09,-3.4876884035766E+00
+223.5000E-09,-3.5680904127646E+00
+223.7500E-09,-3.5680904127657E+00
+224.0000E-09,-3.5680904127657E+00
+224.2500E-09,-3.6484924219537E+00
+224.5000E-09,-3.6484924219549E+00
+224.7500E-09,-3.6484924219549E+00
+225.0000E-09,-3.6484924219549E+00
+225.2500E-09,-3.6484924219549E+00
+225.5000E-09,-3.6484924219549E+00
+225.7500E-09,-3.6484924219549E+00
+226.0000E-09,-3.6484924219549E+00
+226.2500E-09,-3.6484924219549E+00
+226.5000E-09,-3.7288944311428E+00
+226.7500E-09,-3.7288944311440E+00
+227.0000E-09,-3.7288944311440E+00
+227.2500E-09,-3.7288944311440E+00
+227.5000E-09,-3.7288944311440E+00
+227.7500E-09,-3.7288944311440E+00
+228.0000E-09,-3.7288944311440E+00
+228.2500E-09,-3.7288944311440E+00
+228.5000E-09,-3.8092964403319E+00
+228.7500E-09,-3.8092964403331E+00
+229.0000E-09,-3.8092964403331E+00
+229.2500E-09,-3.8092964403331E+00
+229.5000E-09,-3.8092964403331E+00
+229.7500E-09,-3.8092964403331E+00
+230.0000E-09,-3.8092964403331E+00
+230.2500E-09,-3.8092964403331E+00
+230.5000E-09,-3.8092964403331E+00
+230.7500E-09,-3.8092964403331E+00
+231.0000E-09,-3.8092964403331E+00
+231.2500E-09,-3.8092964403331E+00
+231.5000E-09,-3.8092964403331E+00
+231.7500E-09,-3.8092964403331E+00
+232.0000E-09,-3.8092964403331E+00
+232.2500E-09,-3.8092964403331E+00
+232.5000E-09,-3.8092964403331E+00
+232.7500E-09,-3.8896984495210E+00
+233.0000E-09,-3.8896984495223E+00
+233.2500E-09,-3.8896984495223E+00
+233.5000E-09,-3.8092964403344E+00
+233.7500E-09,-3.8092964403331E+00
+234.0000E-09,-3.8092964403331E+00
+234.2500E-09,-3.8092964403331E+00
+234.5000E-09,-3.8092964403331E+00
+234.7500E-09,-3.8092964403331E+00
+235.0000E-09,-3.8092964403331E+00
+235.2500E-09,-3.8092964403331E+00
+235.5000E-09,-3.8092964403331E+00
+235.7500E-09,-3.8092964403331E+00
+236.0000E-09,-3.8092964403331E+00
+236.2500E-09,-3.8092964403331E+00
+236.5000E-09,-3.8092964403331E+00
+236.7500E-09,-3.8092964403331E+00
+237.0000E-09,-3.8092964403331E+00
+237.2500E-09,-3.8092964403331E+00
+237.5000E-09,-3.8092964403331E+00
+237.7500E-09,-3.8092964403331E+00
+238.0000E-09,-3.8092964403331E+00
+238.2500E-09,-3.8092964403331E+00
+238.5000E-09,-3.8092964403331E+00
+238.7500E-09,-3.8092964403331E+00
+239.0000E-09,-3.8092964403331E+00
+239.2500E-09,-3.8092964403331E+00
+239.5000E-09,-3.7288944311453E+00
+239.7500E-09,-3.7288944311440E+00
+240.0000E-09,-3.7288944311440E+00
+240.2500E-09,-3.7288944311440E+00
+240.5000E-09,-3.7288944311440E+00
+240.7500E-09,-3.7288944311440E+00
+241.0000E-09,-3.7288944311440E+00
+241.2500E-09,-3.7288944311440E+00
+241.5000E-09,-3.7288944311440E+00
+241.7500E-09,-3.7288944311440E+00
+242.0000E-09,-3.7288944311440E+00
+242.2500E-09,-3.7288944311440E+00
+242.5000E-09,-3.7288944311440E+00
+242.7500E-09,-3.7288944311440E+00
+243.0000E-09,-3.7288944311440E+00
+243.2500E-09,-3.7288944311440E+00
+243.5000E-09,-3.7288944311440E+00
+243.7500E-09,-3.6484924219561E+00
+244.0000E-09,-3.6484924219549E+00
+244.2500E-09,-3.6484924219549E+00
+244.5000E-09,-3.6484924219549E+00
+244.7500E-09,-3.6484924219549E+00
+245.0000E-09,-3.6484924219549E+00
+245.2500E-09,-3.6484924219549E+00
+245.5000E-09,-3.5680904127669E+00
+245.7500E-09,-3.5680904127657E+00
+246.0000E-09,-3.5680904127657E+00
+246.2500E-09,-3.5680904127657E+00
+246.5000E-09,-3.5680904127657E+00
+246.7500E-09,-3.5680904127657E+00
+247.0000E-09,-3.4876884035778E+00
+247.2500E-09,-3.4876884035766E+00
+247.5000E-09,-3.4876884035766E+00
+247.7500E-09,-3.4876884035766E+00
+248.0000E-09,-3.4876884035766E+00
+248.2500E-09,-3.4876884035766E+00
+248.5000E-09,-3.4876884035766E+00
+248.7500E-09,-3.4072863943886E+00
+249.0000E-09,-3.4072863943875E+00
+249.2500E-09,-3.4072863943875E+00
+249.5000E-09,-3.3268843851994E+00
+249.7500E-09,-3.3268843851984E+00
