;R1=1k;R2=5k;
;Phase;DB;Ua(mV)
10;177,64;15,11749711;570
100;189,4;15,11749711;570
500;173,78;14,96376054;560
700;179,1;14,96376054;560
1000;181,4;14,96376054;560
1200;176,8;14,96376054;560
1400;180;14,96376054;560
2000;176,15;15,11749711;570
4000;175,6;14,96376054;560
6000;179,9;14,80725379;550
8000;180,9;14,80725379;550
10000;176,75;14,80725379;550
15000;179,3;14,80725379;550
30000;171,6;14,80725379;550
40000;173,3;14,32006687;520
50000;170,5;14,15140352;510
51000;166,5;14,48551739;530
52000;169,2;14,6478752;540
53000;165,2;14,48551739;530
54000;160,7;13,8039216;490
55000;161,79;13,97940009;500
60000;167,9;13,97940009;500
70000;152,81;14,6478752;540
80000;158,8;14,32006687;520
90000;155,72;13,97940009;500
100000;148,48;13,62482475;480
120000;143,96;13,44195716;470
140000;141,91;13,25515663;460
160000;136,25;13,06425028;450
180000;131,41;12,86905353;440
200000;125,89;12,66936911;430
220000;120,84;12,46498581;420
230000;123,5;12,25567713;410
240000;118,2;12,04119983;400
250000;114,9;11,82129214;390
260000;116,1;11,82129214;390
280000;109,7;11,59567193;380
300000;102,3;11,36403448;370
400000;102,3;9,827233877;310
500000;87;8,627275283;270
600000;77,1;7,196709647;229
700000;56,8;5,343434568;185
800000;66,3;4,760922063;173
900000;51,4;3,917993048;157
1000000;46,7;2,211794206;129
