;;RLC 22Ohm;;;;RLC 180Ohm;;;;RLC 1kOhm;
Hz;Phase;DB;Ua(mV);;Phase;DB;Ua(mV);;Phase;DB;Ua(mV)
100;;;;;;;;;-1,42;0,748529959;1090
500;;;;;;;;;-3,6;0;1090
800;;;;;;;;;-4,76;0;1090
850;;;;;;;;;-4,46;0;1090
900;;;;;;;;;-4,25;-0,160854405;1070
1000;-2,5;0,164666347;2130;;-8,1;-0,041659023;2080;;-5,08;0;1090
2000;-3,47;0,326268955;2170;;-14,3;-0,167848501;2050;;-8,89;-0,160854405;1070
3000;-4,25;0,326268955;2170;;-20,2;-0,382325809;2000;;-11,03;-0,324743977;1050
4000;-5,39;0,484919751;2210;;-27,03;-0,782258377;1910;;-15,4;-0,324743977;1050
5000;-6,33;0,64072464;2250;;-32,7;-1,153903928;1830;;-18,67;-0,491785465;1030
6000;-7,09;0,944192698;2330;;-39,1;-1,692356784;1720;;-22,36;-0,662102483;1010
7000;-9,04;1,237415129;2410;;-45,3;-2,106048761;1640;;-22,94;-0,924008445;980
9000;-12,72;1,929884425;2610;;-57,9;-2,997691414;1480;;-29,3;-1,285972887;940
10000;-15,45;2,446669659;2770;;-61,92;-3,668514379;1370;;-34,44;-1,472773412;920
12000;-25,45;3,197213137;3020;;-72,79;-4,604823493;1230;;-39,78;-2,058560934;860
13000;-29,05;3,311502807;3060;;-79,26;-5,188968915;1150;;-42,68;-2,058560934;860
14000;-49,03;3,311502807;3060;;-82,95;-5,654395763;1090;;-45,68;-2,472252911;820
15000;-67,98;3,052203264;2970;;-86,7;-6,316498247;1010;;-47,67;-2,686730219;800
15500;-82,88;2,815031133;2890;;-90,51;-6,578404208;980;;-47,9;-2,686730219;800
15756;-98,8;2,815031133;2890;;-90,6;-6,94036865;940;;-49,49;-3,247304691;750
15916;-95,89;2,571200676;2810;;-90;-7,033266751;930;;-49,87;-3,247304691;750
16000;-99,38;2,571200676;2810;;-92,05;-6,757501061;960;;-48,33;-3,363895564;740
16500;-111,41;2,320327219;2730;;-93,35;-7,033266751;930;;-48,46;-3,363895564;740
17000;-123,66;1,929884425;2610;;-94,49;-7,033266751;930;;-51;-3,60188003;720
18000;-139,33;1,092041198;2370;;-98,13;-7,61254067;870;;-52,96;-3,723362984;710
19000;-149,65;0,164666347;2130;;-103,1;-8,126648675;820;;-55,86;-4,098351705;680
20000;-152,74;-0,691779542;1930;;-106,67;-8,673111219;770;;-57,51;-4,227033905;670
21000;-158,687;-1,64200366;1730;;-108,35;-9,018291328;740;;-58,52;-4,624930479;640
22000;-163,52;-2,484932674;1570;;-111,91;-9,377758748;710;;-60,83;-4,76171897;630
23000;-165;-3,418543469;1410;;-114,88;-9,752747468;680;;-62,07;-5,041933259;610
24000;-161,73;-4,191131516;1290;;-117,08;-10,01204701;660;;-62,34;-5,331489726;590
27000;-171,94;-6,316498247;1010;;-123,2;-11,28542861;570;;-67,75;-5,941276169;550
29000;-167,22;-7,513272279;880;;-127,2;-12,96096856;470;;-72,59;-6,428463086;520
30000;-174,9;-7,917340001;840;;-128,33;-13,33867545;450;;-72,53;-6,597126437;510
35000;-178,3;-10,83990071;600;;-136,17;-15,03889124;370;;-76,88;-7,684279683;450
40000;-173;-14,58163358;390;;-143,78;-16,86050063;300;;-84,11;-8,492852824;410
50000;-175,3;-18,61960403;245;;-150,37;-19,55447211;220;;-87,6;-10,37825116;330
60000;-177,5;-21,64200366;173;;-153,7;-22,76605396;152;;-99,07;-13,62801281;227
80000;-179,9;-25,65439576;109;;-161,1;-26,57840421;98;;-110,86;-14,51345274;205
100000;-179,6;-28,34112598;80;;-164,4;-29,25627579;72;;-117,75;-16,83053691;157
120000;-178,8;-30,98588549;59;;-164,2;-31,43916518;56;;-122,01;-18,53673575;129
150000;-178;-32,96096856;47;;-160,2;-33,33867545;45;;-132,03;-20,32474398;105
170000;;;;;;;;;-139,96;-22,26294424;84
200000;;;;;;;;;-139,71;-24,0983517;68
250000;;;;;;;;;-152,3;-26,59712644;51
300000;;;;;;;;;-154,3;-27,68427968;45
400000;;;;;;;;;-155,2;-31,50057;29
