Version 4
SHEET 1 880 680
WIRE 560 -80 112 -80
WIRE 384 0 320 0
WIRE -288 16 -288 -16
WIRE 112 16 112 -80
WIRE 192 16 112 16
WIRE 320 32 320 0
WIRE 320 32 256 32
WIRE 192 48 -64 48
WIRE 224 80 224 64
WIRE -64 96 -64 48
WIRE -288 112 -288 96
WIRE -288 112 -400 112
WIRE 384 112 384 80
WIRE 560 112 560 -80
WIRE 560 112 384 112
WIRE -288 160 -288 112
WIRE 384 160 384 112
WIRE -288 272 -288 240
WIRE -64 288 -64 176
WIRE 160 288 -64 288
WIRE 384 288 384 240
WIRE 384 288 160 288
WIRE 160 336 160 288
FLAG 160 336 0
FLAG -400 112 0
FLAG -288 272 -15V
FLAG 224 80 -15V
FLAG -288 -16 +15V
FLAG 224 0 +15V
SYMBOL res 368 144 R0
SYMATTR InstName R1
SYMATTR Value 1k
SYMBOL res 368 -16 R0
SYMATTR InstName R2
SYMATTR Value 50k
SYMBOL Opamps\\LT1014 224 -32 R0
SYMATTR InstName U1
SYMBOL Misc\\battery -288 144 R0
WINDOW 123 0 0 Left 2
WINDOW 39 0 0 Left 2
SYMATTR InstName V1
SYMATTR Value 15
SYMBOL Misc\\battery -288 0 R0
WINDOW 123 0 0 Left 2
WINDOW 39 0 0 Left 2
SYMATTR InstName V2
SYMATTR Value 15
SYMBOL voltage -64 80 R0
WINDOW 123 0 0 Left 2
WINDOW 39 0 0 Left 2
SYMATTR InstName V3
SYMATTR Value PULSE(-0.1 0.1 5m 0.1u 0.1u 5m 10m)
TEXT -424 368 Left 2 !.tran 100m
