Version 4
SHEET 1 880 680
WIRE 176 -96 128 -96
WIRE 384 -96 256 -96
WIRE -288 16 -288 -16
WIRE 0 48 -64 48
WIRE 128 48 128 -96
WIRE 128 48 80 48
WIRE 192 48 128 48
WIRE 384 64 384 -96
WIRE 384 64 256 64
WIRE 192 80 128 80
WIRE -64 96 -64 48
WIRE -288 112 -288 96
WIRE -288 112 -400 112
WIRE 224 112 224 96
WIRE 128 128 128 80
WIRE -288 160 -288 112
WIRE -64 224 -64 176
WIRE -288 272 -288 240
FLAG -64 224 0
FLAG -400 112 0
FLAG -288 272 -15V
FLAG 224 112 -15V
FLAG -288 -16 +15V
FLAG 224 32 +15V
FLAG 128 128 0
SYMBOL res 96 32 R90
WINDOW 0 0 56 VBottom 2
WINDOW 3 32 56 VTop 2
SYMATTR InstName R1
SYMATTR Value 1k
SYMBOL res 272 -112 R90
WINDOW 0 0 56 VBottom 2
WINDOW 3 32 56 VTop 2
SYMATTR InstName R2
SYMATTR Value 50k
SYMBOL Opamps\\LT1014 224 0 R0
SYMATTR InstName U1
SYMBOL Misc\\battery -288 144 R0
WINDOW 123 0 0 Left 2
WINDOW 39 0 0 Left 2
SYMATTR InstName V1
SYMATTR Value 15
SYMBOL Misc\\battery -288 0 R0
WINDOW 123 0 0 Left 2
WINDOW 39 0 0 Left 2
SYMATTR InstName V2
SYMATTR Value 15
SYMBOL voltage -64 80 R0
WINDOW 123 24 124 Left 2
WINDOW 39 0 0 Left 2
SYMATTR InstName V3
SYMATTR Value 0.1
TEXT -426 388 Left 2 !.tran 6
