Version 4
SHEET 1 880 680
WIRE -256 -272 -256 -304
WIRE -256 -176 -256 -192
WIRE -256 -176 -368 -176
WIRE 288 32 288 16
WIRE 256 48 -64 48
WIRE 384 64 320 64
WIRE 256 80 224 80
WIRE -64 96 -64 48
WIRE 288 112 288 96
WIRE -64 192 -64 176
WIRE 80 224 32 224
WIRE 224 224 224 80
WIRE 224 224 160 224
WIRE 272 224 224 224
WIRE 384 224 384 64
WIRE 384 224 352 224
WIRE 32 288 32 224
WIRE 224 288 224 224
WIRE 32 480 32 368
WIRE 224 480 224 368
WIRE 224 480 32 480
FLAG -368 -176 0
FLAG -256 -304 +5V
FLAG 288 16 +5V
FLAG 288 112 0
FLAG -64 192 0
FLAG 224 480 0
SYMBOL Opamps\\LT1014 288 0 R0
SYMATTR InstName U1
SYMBOL Misc\\battery -256 -288 R0
WINDOW 123 0 0 Left 2
WINDOW 39 0 0 Left 2
SYMATTR InstName V2
SYMATTR Value 5
SYMBOL voltage -64 80 R0
WINDOW 3 -464 107 Left 2
WINDOW 123 24 124 Left 2
WINDOW 39 0 0 Left 2
SYMATTR Value SINE(2.5 5 50)
SYMATTR Value2 AC 1
SYMATTR InstName V3
SYMBOL res 208 272 R0
SYMATTR InstName R1
SYMATTR Value 4k7
SYMBOL res 176 208 R90
WINDOW 0 0 56 VBottom 2
WINDOW 3 32 56 VTop 2
SYMATTR InstName R2
SYMATTR Value 10k
SYMBOL res 368 208 R90
WINDOW 0 0 56 VBottom 2
WINDOW 3 32 56 VTop 2
SYMATTR InstName R3
SYMATTR Value 4k7
SYMBOL voltage 32 272 R0
WINDOW 123 0 0 Left 2
WINDOW 39 0 0 Left 2
SYMATTR InstName V4
SYMATTR Value 5
TEXT 352 -248 Left 2 !.tran 100m
