Version 4
SHEET 1 880 680
WIRE 32 -32 -64 -32
WIRE 208 -32 112 -32
WIRE 304 -32 208 -32
WIRE -64 0 -64 -32
WIRE 208 0 208 -32
WIRE -64 112 -64 80
WIRE 208 112 208 80
WIRE 208 112 -64 112
WIRE 304 112 208 112
FLAG 208 112 0
FLAG -64 112 0
SYMBOL voltage -64 -16 R0
WINDOW 123 24 124 Left 2
WINDOW 39 0 0 Left 2
SYMATTR InstName V1
SYMATTR Value PULSE(0 1)
SYMBOL res 128 -48 R90
WINDOW 0 5 56 VBottom 2
WINDOW 3 27 56 VTop 2
SYMATTR InstName R1
SYMATTR Value 47
SYMBOL ind 192 -16 R0
SYMATTR InstName L1
SYMATTR Value 1m
SYMATTR SpiceLine Rser=0
TEXT -48 160 Left 2 !.tran 200u
