Version 4
SHEET 1 880 680
WIRE 32 -48 -240 -48
WIRE -240 -16 -240 -48
WIRE 32 -16 32 -48
WIRE -240 96 -240 64
WIRE -144 96 -240 96
WIRE 32 96 32 64
WIRE 32 96 -64 96
WIRE 32 144 32 96
WIRE -240 240 -240 96
WIRE -176 240 -240 240
WIRE -144 240 -176 240
WIRE 32 240 32 224
WIRE 32 240 -64 240
WIRE -176 256 -176 240
WIRE -240 352 -240 240
WIRE -144 352 -240 352
WIRE 32 352 32 240
WIRE 32 352 -64 352
WIRE 32 384 32 352
WIRE -240 496 -240 352
WIRE 32 496 32 464
WIRE 32 496 -240 496
FLAG -176 256 0
SYMBOL res 16 -32 R0
SYMATTR InstName R1
SYMATTR Value 6.8kR
SYMBOL res 16 128 R0
SYMATTR InstName R3
SYMATTR Value 3.3kR
SYMBOL res 16 368 R0
SYMATTR InstName R5
SYMATTR Value 2.2kR
SYMBOL voltage -240 -32 R0
WINDOW 123 0 0 Left 2
WINDOW 39 0 0 Left 2
SYMATTR InstName V1
SYMATTR Value 10V
SYMBOL res -48 80 R90
WINDOW 0 0 56 VBottom 2
WINDOW 3 32 56 VTop 2
SYMATTR InstName R2
SYMATTR Value 3.3kR
SYMBOL res -48 336 R90
WINDOW 0 0 56 VBottom 2
WINDOW 3 32 56 VTop 2
SYMATTR InstName R4
SYMATTR Value 6.8kR
SYMBOL res -48 224 R90
WINDOW 0 0 56 VBottom 2
WINDOW 3 32 56 VTop 2
SYMATTR InstName Rx
SYMATTR Value 1kR
TEXT -408 504 Left 2 !.tran 1 startup
